Tue 20 Jul 2021 01:20:45 CEST :: 32%
Tue 20 Jul 2021 01:21:46 CEST :: 32%
Tue 20 Jul 2021 01:22:47 CEST :: 32%
Tue 20 Jul 2021 01:23:47 CEST :: 32%
Tue 20 Jul 2021 01:24:48 CEST :: 32%
Tue 20 Jul 2021 01:25:48 CEST :: 32%
Tue 20 Jul 2021 01:26:49 CEST :: 32%
Tue 20 Jul 2021 01:27:50 CEST :: 32%
Tue 20 Jul 2021 01:28:50 CEST :: 32%
Tue 20 Jul 2021 01:29:51 CEST :: 32%
Tue 20 Jul 2021 01:30:52 CEST :: 32%
Tue 20 Jul 2021 01:31:52 CEST :: 32%
Tue 20 Jul 2021 01:32:53 CEST :: 32%
Tue 20 Jul 2021 01:33:53 CEST :: 32%
Tue 20 Jul 2021 01:34:54 CEST :: 32%
Tue 20 Jul 2021 01:35:55 CEST :: 32%
Tue 20 Jul 2021 01:36:56 CEST :: 32%
Tue 20 Jul 2021 01:37:56 CEST :: 32%
Tue 20 Jul 2021 01:38:57 CEST :: 32%
Tue 20 Jul 2021 01:39:58 CEST :: 32%
Tue 20 Jul 2021 01:40:59 CEST :: 32%
Tue 20 Jul 2021 01:42:00 CEST :: 32%
Tue 20 Jul 2021 01:43:00 CEST :: 32%
Tue 20 Jul 2021 01:44:01 CEST :: 32%
Tue 20 Jul 2021 01:45:02 CEST :: 32%
Tue 20 Jul 2021 01:46:03 CEST :: 31%
Tue 20 Jul 2021 01:47:03 CEST :: 31%
Tue 20 Jul 2021 01:48:04 CEST :: 31%
Tue 20 Jul 2021 01:49:04 CEST :: 31%
Tue 20 Jul 2021 01:50:05 CEST :: 31%
Tue 20 Jul 2021 01:51:06 CEST :: 31%
Tue 20 Jul 2021 01:52:06 CEST :: 31%
Tue 20 Jul 2021 01:53:07 CEST :: 31%
Tue 20 Jul 2021 01:54:07 CEST :: 31%
Tue 20 Jul 2021 01:55:08 CEST :: 31%
Tue 20 Jul 2021 01:56:08 CEST :: 31%
Tue 20 Jul 2021 01:57:09 CEST :: 31%
Tue 20 Jul 2021 01:58:10 CEST :: 31%
Tue 20 Jul 2021 01:59:10 CEST :: 31%
Tue 20 Jul 2021 02:00:11 CEST :: 31%
Tue 20 Jul 2021 02:01:12 CEST :: 31%
Tue 20 Jul 2021 02:02:12 CEST :: 31%
Tue 20 Jul 2021 02:03:13 CEST :: 31%
Tue 20 Jul 2021 02:04:13 CEST :: 31%
Tue 20 Jul 2021 02:05:14 CEST :: 31%
Tue 20 Jul 2021 02:06:15 CEST :: 31%
Tue 20 Jul 2021 02:07:17 CEST :: 31%
Tue 20 Jul 2021 02:08:19 CEST :: 31%
Tue 20 Jul 2021 02:09:19 CEST :: 31%
Tue 20 Jul 2021 02:10:23 CEST :: 31%
Tue 20 Jul 2021 02:11:24 CEST :: 31%
Tue 20 Jul 2021 02:12:25 CEST :: 31%
Tue 20 Jul 2021 02:13:25 CEST :: 31%
Tue 20 Jul 2021 02:14:26 CEST :: 30%
Tue 20 Jul 2021 02:15:27 CEST :: 30%
Tue 20 Jul 2021 02:16:27 CEST :: 30%
Tue 20 Jul 2021 02:17:28 CEST :: 30%
Tue 20 Jul 2021 02:18:29 CEST :: 30%
Tue 20 Jul 2021 02:19:30 CEST :: 30%
Tue 20 Jul 2021 02:20:31 CEST :: 30%
Tue 20 Jul 2021 02:21:32 CEST :: 30%
Tue 20 Jul 2021 02:22:33 CEST :: 30%
Tue 20 Jul 2021 02:23:34 CEST :: 30%
Tue 20 Jul 2021 02:24:35 CEST :: 30%
Tue 20 Jul 2021 02:25:35 CEST :: 30%
Tue 20 Jul 2021 02:26:36 CEST :: 30%
Tue 20 Jul 2021 02:27:36 CEST :: 30%
Tue 20 Jul 2021 02:28:37 CEST :: 30%
Tue 20 Jul 2021 02:29:38 CEST :: 30%
Tue 20 Jul 2021 02:30:38 CEST :: 30%
Tue 20 Jul 2021 02:31:39 CEST :: 30%
Tue 20 Jul 2021 02:32:39 CEST :: 30%
Tue 20 Jul 2021 02:33:40 CEST :: 30%
Tue 20 Jul 2021 02:34:40 CEST :: 30%
Tue 20 Jul 2021 02:35:41 CEST :: 30%
Tue 20 Jul 2021 02:36:42 CEST :: 30%
Tue 20 Jul 2021 02:37:42 CEST :: 30%
Tue 20 Jul 2021 02:38:43 CEST :: 30%
Tue 20 Jul 2021 02:39:44 CEST :: 30%
Tue 20 Jul 2021 02:40:44 CEST :: 30%
Tue 20 Jul 2021 02:41:45 CEST :: 30%
Tue 20 Jul 2021 02:42:45 CEST :: 30%
Tue 20 Jul 2021 02:43:46 CEST :: 30%
Tue 20 Jul 2021 02:44:47 CEST :: 29%
Tue 20 Jul 2021 02:45:47 CEST :: 29%
Tue 20 Jul 2021 02:46:48 CEST :: 29%
Tue 20 Jul 2021 02:47:48 CEST :: 29%
Tue 20 Jul 2021 02:48:49 CEST :: 29%
Tue 20 Jul 2021 02:49:50 CEST :: 29%
Tue 20 Jul 2021 02:50:50 CEST :: 29%
Tue 20 Jul 2021 02:51:51 CEST :: 29%
Tue 20 Jul 2021 02:52:51 CEST :: 29%
Tue 20 Jul 2021 02:53:52 CEST :: 29%
Tue 20 Jul 2021 02:54:53 CEST :: 29%
Tue 20 Jul 2021 02:55:53 CEST :: 29%
Tue 20 Jul 2021 02:56:54 CEST :: 29%
Tue 20 Jul 2021 02:57:54 CEST :: 29%
Tue 20 Jul 2021 02:58:55 CEST :: 29%
Tue 20 Jul 2021 02:59:56 CEST :: 29%
Tue 20 Jul 2021 03:00:56 CEST :: 29%
Tue 20 Jul 2021 03:01:57 CEST :: 29%
Tue 20 Jul 2021 03:02:57 CEST :: 29%
Tue 20 Jul 2021 03:03:58 CEST :: 29%
Tue 20 Jul 2021 03:04:59 CEST :: 29%
Tue 20 Jul 2021 03:05:59 CEST :: 29%
Tue 20 Jul 2021 03:07:00 CEST :: 29%
Tue 20 Jul 2021 03:08:00 CEST :: 29%
Tue 20 Jul 2021 03:09:01 CEST :: 29%
Tue 20 Jul 2021 03:10:02 CEST :: 29%
Tue 20 Jul 2021 03:11:02 CEST :: 29%
Tue 20 Jul 2021 03:12:03 CEST :: 29%
Tue 20 Jul 2021 03:13:03 CEST :: 29%
Tue 20 Jul 2021 03:14:04 CEST :: 29%
Tue 20 Jul 2021 03:15:05 CEST :: 29%
Tue 20 Jul 2021 03:16:05 CEST :: 29%
Tue 20 Jul 2021 03:17:06 CEST :: 29%
Tue 20 Jul 2021 03:18:07 CEST :: 29%
Tue 20 Jul 2021 03:19:07 CEST :: 29%
Tue 20 Jul 2021 03:20:08 CEST :: 29%
Tue 20 Jul 2021 03:21:08 CEST :: 29%
Tue 20 Jul 2021 03:22:09 CEST :: 29%
Tue 20 Jul 2021 03:23:10 CEST :: 29%
Tue 20 Jul 2021 03:24:10 CEST :: 29%
Tue 20 Jul 2021 03:25:11 CEST :: 29%
Tue 20 Jul 2021 03:26:12 CEST :: 29%
Tue 20 Jul 2021 03:27:12 CEST :: 28%
Tue 20 Jul 2021 03:28:13 CEST :: 28%
Tue 20 Jul 2021 03:29:13 CEST :: 28%
Tue 20 Jul 2021 03:30:14 CEST :: 28%
Tue 20 Jul 2021 03:31:14 CEST :: 28%
Tue 20 Jul 2021 03:32:15 CEST :: 28%
Tue 20 Jul 2021 03:33:16 CEST :: 28%
Tue 20 Jul 2021 03:34:16 CEST :: 28%
Tue 20 Jul 2021 03:35:17 CEST :: 28%
Tue 20 Jul 2021 03:36:17 CEST :: 28%
Tue 20 Jul 2021 03:37:18 CEST :: 28%
Tue 20 Jul 2021 03:38:19 CEST :: 28%
Tue 20 Jul 2021 03:39:19 CEST :: 28%
Tue 20 Jul 2021 03:40:20 CEST :: 28%
Tue 20 Jul 2021 03:41:21 CEST :: 28%
Tue 20 Jul 2021 03:42:21 CEST :: 28%
Tue 20 Jul 2021 03:43:22 CEST :: 28%
Tue 20 Jul 2021 03:44:23 CEST :: 28%
Tue 20 Jul 2021 03:45:23 CEST :: 28%
Tue 20 Jul 2021 03:46:24 CEST :: 28%
Tue 20 Jul 2021 03:47:24 CEST :: 28%
Tue 20 Jul 2021 03:48:25 CEST :: 28%
Tue 20 Jul 2021 03:49:26 CEST :: 28%
Tue 20 Jul 2021 03:50:26 CEST :: 28%
Tue 20 Jul 2021 03:51:27 CEST :: 28%
Tue 20 Jul 2021 03:52:27 CEST :: 28%
Tue 20 Jul 2021 03:53:28 CEST :: 28%
Tue 20 Jul 2021 03:54:29 CEST :: 28%
Tue 20 Jul 2021 03:55:29 CEST :: 28%
Tue 20 Jul 2021 03:56:30 CEST :: 28%
Tue 20 Jul 2021 03:57:30 CEST :: 28%
Tue 20 Jul 2021 03:58:31 CEST :: 28%
Tue 20 Jul 2021 03:59:32 CEST :: 28%
Tue 20 Jul 2021 04:00:32 CEST :: 28%
Tue 20 Jul 2021 04:01:33 CEST :: 28%
Tue 20 Jul 2021 04:02:34 CEST :: 28%
Tue 20 Jul 2021 04:03:36 CEST :: 28%
Tue 20 Jul 2021 04:04:38 CEST :: 27%
Tue 20 Jul 2021 04:05:38 CEST :: 27%
Tue 20 Jul 2021 04:06:39 CEST :: 27%
Tue 20 Jul 2021 04:07:39 CEST :: 27%
Tue 20 Jul 2021 04:08:40 CEST :: 27%
Tue 20 Jul 2021 04:09:40 CEST :: 27%
Tue 20 Jul 2021 04:10:41 CEST :: 27%
Tue 20 Jul 2021 04:11:42 CEST :: 27%
Tue 20 Jul 2021 04:12:42 CEST :: 27%
Tue 20 Jul 2021 04:13:43 CEST :: 27%
Tue 20 Jul 2021 04:14:44 CEST :: 27%
Tue 20 Jul 2021 04:15:44 CEST :: 27%
Tue 20 Jul 2021 04:16:45 CEST :: 27%
Tue 20 Jul 2021 04:17:45 CEST :: 27%
Tue 20 Jul 2021 04:18:46 CEST :: 27%
Tue 20 Jul 2021 04:19:47 CEST :: 27%
Tue 20 Jul 2021 04:20:47 CEST :: 27%
Tue 20 Jul 2021 04:21:48 CEST :: 27%
Tue 20 Jul 2021 04:22:48 CEST :: 27%
Tue 20 Jul 2021 04:23:49 CEST :: 27%
Tue 20 Jul 2021 04:24:50 CEST :: 27%
Tue 20 Jul 2021 04:25:50 CEST :: 27%
Tue 20 Jul 2021 04:26:51 CEST :: 27%
Tue 20 Jul 2021 04:27:52 CEST :: 27%
Tue 20 Jul 2021 04:28:52 CEST :: 27%
Tue 20 Jul 2021 04:29:53 CEST :: 27%
Tue 20 Jul 2021 04:30:53 CEST :: 27%
Tue 20 Jul 2021 04:31:54 CEST :: 27%
Tue 20 Jul 2021 04:32:55 CEST :: 27%
Tue 20 Jul 2021 04:33:55 CEST :: 27%
Tue 20 Jul 2021 04:34:56 CEST :: 27%
Tue 20 Jul 2021 04:35:56 CEST :: 27%
Tue 20 Jul 2021 04:36:57 CEST :: 27%
Tue 20 Jul 2021 04:37:58 CEST :: 27%
Tue 20 Jul 2021 04:38:58 CEST :: 27%
Tue 20 Jul 2021 04:39:59 CEST :: 27%
Tue 20 Jul 2021 04:40:59 CEST :: 27%
Tue 20 Jul 2021 04:42:00 CEST :: 27%
Tue 20 Jul 2021 04:43:01 CEST :: 26%
Tue 20 Jul 2021 04:44:01 CEST :: 26%
Tue 20 Jul 2021 04:45:02 CEST :: 26%
Tue 20 Jul 2021 04:46:03 CEST :: 26%
Tue 20 Jul 2021 04:47:03 CEST :: 26%
Tue 20 Jul 2021 04:48:04 CEST :: 26%
Tue 20 Jul 2021 04:49:05 CEST :: 26%
Tue 20 Jul 2021 04:50:05 CEST :: 26%
Tue 20 Jul 2021 04:51:06 CEST :: 26%
Tue 20 Jul 2021 04:52:06 CEST :: 26%
Tue 20 Jul 2021 04:53:07 CEST :: 26%
Tue 20 Jul 2021 04:54:08 CEST :: 26%
Tue 20 Jul 2021 04:55:08 CEST :: 26%
Tue 20 Jul 2021 04:56:09 CEST :: 26%
Tue 20 Jul 2021 04:57:10 CEST :: 26%
Tue 20 Jul 2021 04:58:10 CEST :: 26%
Tue 20 Jul 2021 04:59:11 CEST :: 26%
Tue 20 Jul 2021 05:00:11 CEST :: 26%
Tue 20 Jul 2021 05:01:12 CEST :: 26%
Tue 20 Jul 2021 05:02:13 CEST :: 26%
Tue 20 Jul 2021 05:03:13 CEST :: 26%
Tue 20 Jul 2021 05:04:14 CEST :: 26%
Tue 20 Jul 2021 05:05:14 CEST :: 26%
Tue 20 Jul 2021 05:06:15 CEST :: 26%
Tue 20 Jul 2021 05:07:16 CEST :: 26%
Tue 20 Jul 2021 05:08:16 CEST :: 26%
Tue 20 Jul 2021 05:09:17 CEST :: 26%
Tue 20 Jul 2021 05:10:17 CEST :: 26%
Tue 20 Jul 2021 05:11:18 CEST :: 26%
Tue 20 Jul 2021 05:12:19 CEST :: 26%
Tue 20 Jul 2021 05:13:19 CEST :: 26%
Tue 20 Jul 2021 05:14:20 CEST :: 26%
Tue 20 Jul 2021 05:15:21 CEST :: 26%
Tue 20 Jul 2021 05:16:21 CEST :: 26%
Tue 20 Jul 2021 05:17:22 CEST :: 26%
Tue 20 Jul 2021 05:18:22 CEST :: 26%
Tue 20 Jul 2021 05:19:23 CEST :: 26%
Tue 20 Jul 2021 05:20:24 CEST :: 25%
Tue 20 Jul 2021 05:21:24 CEST :: 25%
Tue 20 Jul 2021 05:22:25 CEST :: 25%
Tue 20 Jul 2021 05:23:25 CEST :: 25%
Tue 20 Jul 2021 05:24:26 CEST :: 25%
Tue 20 Jul 2021 05:25:27 CEST :: 25%
Tue 20 Jul 2021 05:26:28 CEST :: 25%
Tue 20 Jul 2021 05:27:28 CEST :: 25%
Tue 20 Jul 2021 05:28:29 CEST :: 25%
Tue 20 Jul 2021 05:29:30 CEST :: 25%
Tue 20 Jul 2021 05:30:30 CEST :: 25%
Tue 20 Jul 2021 05:31:31 CEST :: 25%
Tue 20 Jul 2021 05:32:32 CEST :: 25%
Tue 20 Jul 2021 05:33:32 CEST :: 25%
Tue 20 Jul 2021 05:34:33 CEST :: 25%
Tue 20 Jul 2021 05:35:33 CEST :: 25%
Tue 20 Jul 2021 05:36:34 CEST :: 25%
Tue 20 Jul 2021 05:37:35 CEST :: 25%
Tue 20 Jul 2021 05:38:35 CEST :: 25%
Tue 20 Jul 2021 05:39:36 CEST :: 25%
Tue 20 Jul 2021 05:40:36 CEST :: 25%
Tue 20 Jul 2021 05:41:37 CEST :: 25%
Tue 20 Jul 2021 05:42:38 CEST :: 25%
Tue 20 Jul 2021 05:43:38 CEST :: 25%
Tue 20 Jul 2021 05:44:39 CEST :: 25%
Tue 20 Jul 2021 05:45:39 CEST :: 25%
Tue 20 Jul 2021 05:46:40 CEST :: 25%
Tue 20 Jul 2021 05:47:41 CEST :: 25%
Tue 20 Jul 2021 05:48:41 CEST :: 25%
Tue 20 Jul 2021 05:49:42 CEST :: 25%
Tue 20 Jul 2021 05:50:42 CEST :: 25%
Tue 20 Jul 2021 05:51:43 CEST :: 25%
Tue 20 Jul 2021 05:52:43 CEST :: 25%
Tue 20 Jul 2021 05:53:44 CEST :: 25%
Tue 20 Jul 2021 05:54:45 CEST :: 25%
Tue 20 Jul 2021 05:55:45 CEST :: 25%
Tue 20 Jul 2021 05:56:46 CEST :: 25%
Tue 20 Jul 2021 05:57:47 CEST :: 25%
Tue 20 Jul 2021 05:58:47 CEST :: 25%
Tue 20 Jul 2021 05:59:48 CEST :: 25%
Tue 20 Jul 2021 06:00:48 CEST :: 25%
Tue 20 Jul 2021 06:01:49 CEST :: 24%
Tue 20 Jul 2021 06:02:50 CEST :: 24%
Tue 20 Jul 2021 06:03:50 CEST :: 24%
Tue 20 Jul 2021 06:04:51 CEST :: 24%
Tue 20 Jul 2021 06:05:51 CEST :: 24%
Tue 20 Jul 2021 06:06:52 CEST :: 24%
Tue 20 Jul 2021 06:07:52 CEST :: 24%
Tue 20 Jul 2021 06:08:53 CEST :: 24%
Tue 20 Jul 2021 06:09:54 CEST :: 24%
Tue 20 Jul 2021 06:10:54 CEST :: 24%
Tue 20 Jul 2021 06:11:55 CEST :: 24%
Tue 20 Jul 2021 06:12:56 CEST :: 24%
Tue 20 Jul 2021 06:13:56 CEST :: 24%
Tue 20 Jul 2021 06:14:57 CEST :: 24%
Tue 20 Jul 2021 06:15:57 CEST :: 24%
Tue 20 Jul 2021 06:16:58 CEST :: 24%
Tue 20 Jul 2021 06:17:59 CEST :: 24%
Tue 20 Jul 2021 06:18:59 CEST :: 24%
Tue 20 Jul 2021 06:20:00 CEST :: 24%
Tue 20 Jul 2021 06:21:00 CEST :: 24%
Tue 20 Jul 2021 06:22:01 CEST :: 24%
Tue 20 Jul 2021 06:23:02 CEST :: 24%
Tue 20 Jul 2021 06:24:02 CEST :: 24%
Tue 20 Jul 2021 06:25:03 CEST :: 24%
Tue 20 Jul 2021 06:26:03 CEST :: 24%
Tue 20 Jul 2021 06:27:04 CEST :: 24%
Tue 20 Jul 2021 06:28:05 CEST :: 24%
Tue 20 Jul 2021 06:29:05 CEST :: 24%
Tue 20 Jul 2021 06:30:06 CEST :: 24%
Tue 20 Jul 2021 06:31:06 CEST :: 24%
Tue 20 Jul 2021 06:32:07 CEST :: 24%
Tue 20 Jul 2021 06:33:08 CEST :: 24%
Tue 20 Jul 2021 06:34:08 CEST :: 24%
Tue 20 Jul 2021 06:35:09 CEST :: 24%
Tue 20 Jul 2021 06:36:10 CEST :: 24%
Tue 20 Jul 2021 06:37:10 CEST :: 24%
Tue 20 Jul 2021 06:38:11 CEST :: 24%
Tue 20 Jul 2021 06:39:11 CEST :: 24%
Tue 20 Jul 2021 06:40:12 CEST :: 23%
Tue 20 Jul 2021 06:41:13 CEST :: 23%
Tue 20 Jul 2021 06:42:13 CEST :: 23%
Tue 20 Jul 2021 06:43:14 CEST :: 23%
Tue 20 Jul 2021 06:44:14 CEST :: 23%
Tue 20 Jul 2021 06:45:15 CEST :: 23%
Tue 20 Jul 2021 06:46:16 CEST :: 23%
Tue 20 Jul 2021 06:47:16 CEST :: 23%
Tue 20 Jul 2021 06:48:17 CEST :: 23%
Tue 20 Jul 2021 06:49:17 CEST :: 23%
Tue 20 Jul 2021 06:50:18 CEST :: 23%
Tue 20 Jul 2021 06:51:19 CEST :: 23%
Tue 20 Jul 2021 06:52:19 CEST :: 23%
Tue 20 Jul 2021 06:53:20 CEST :: 23%
Tue 20 Jul 2021 06:54:20 CEST :: 23%
Tue 20 Jul 2021 06:55:21 CEST :: 23%
Tue 20 Jul 2021 06:56:22 CEST :: 23%
Tue 20 Jul 2021 06:57:22 CEST :: 23%
Tue 20 Jul 2021 06:58:23 CEST :: 23%
Tue 20 Jul 2021 06:59:24 CEST :: 23%
Tue 20 Jul 2021 07:00:24 CEST :: 23%
Tue 20 Jul 2021 07:01:25 CEST :: 23%
Tue 20 Jul 2021 07:02:25 CEST :: 23%
Tue 20 Jul 2021 07:03:26 CEST :: 23%
Tue 20 Jul 2021 07:04:27 CEST :: 23%
Tue 20 Jul 2021 07:05:27 CEST :: 23%
Tue 20 Jul 2021 07:06:28 CEST :: 23%
Tue 20 Jul 2021 07:07:28 CEST :: 23%
Tue 20 Jul 2021 07:08:29 CEST :: 23%
Tue 20 Jul 2021 07:09:29 CEST :: 23%
Tue 20 Jul 2021 07:10:30 CEST :: 23%
Tue 20 Jul 2021 07:11:31 CEST :: 23%
Tue 20 Jul 2021 07:12:31 CEST :: 23%
Tue 20 Jul 2021 07:13:32 CEST :: 23%
Tue 20 Jul 2021 07:14:33 CEST :: 23%
Tue 20 Jul 2021 07:15:33 CEST :: 23%
Tue 20 Jul 2021 07:16:34 CEST :: 23%
Tue 20 Jul 2021 07:17:35 CEST :: 23%
Tue 20 Jul 2021 07:18:35 CEST :: 22%
Tue 20 Jul 2021 07:19:36 CEST :: 22%
Tue 20 Jul 2021 07:20:37 CEST :: 22%
Tue 20 Jul 2021 07:21:37 CEST :: 22%
Tue 20 Jul 2021 07:22:38 CEST :: 22%
Tue 20 Jul 2021 07:23:39 CEST :: 22%
Tue 20 Jul 2021 07:24:39 CEST :: 22%
Tue 20 Jul 2021 07:25:40 CEST :: 22%
Tue 20 Jul 2021 07:26:40 CEST :: 22%
Tue 20 Jul 2021 07:27:41 CEST :: 22%
Tue 20 Jul 2021 07:28:42 CEST :: 22%
Tue 20 Jul 2021 07:29:42 CEST :: 22%
Tue 20 Jul 2021 07:30:43 CEST :: 22%
Tue 20 Jul 2021 07:31:44 CEST :: 22%
Tue 20 Jul 2021 07:32:44 CEST :: 22%
Tue 20 Jul 2021 07:33:45 CEST :: 22%
Tue 20 Jul 2021 07:34:45 CEST :: 22%
Tue 20 Jul 2021 07:35:46 CEST :: 22%
Tue 20 Jul 2021 07:36:47 CEST :: 22%
Tue 20 Jul 2021 07:37:47 CEST :: 22%
Tue 20 Jul 2021 07:38:48 CEST :: 22%
Tue 20 Jul 2021 07:39:48 CEST :: 22%
Tue 20 Jul 2021 07:40:49 CEST :: 22%
Tue 20 Jul 2021 07:41:50 CEST :: 22%
Tue 20 Jul 2021 07:42:50 CEST :: 22%
Tue 20 Jul 2021 07:43:51 CEST :: 22%
Tue 20 Jul 2021 07:44:51 CEST :: 22%
Tue 20 Jul 2021 07:45:52 CEST :: 22%
Tue 20 Jul 2021 07:46:53 CEST :: 22%
Tue 20 Jul 2021 07:47:53 CEST :: 22%
Tue 20 Jul 2021 07:48:54 CEST :: 22%
Tue 20 Jul 2021 07:49:54 CEST :: 22%
Tue 20 Jul 2021 07:50:55 CEST :: 22%
Tue 20 Jul 2021 07:51:56 CEST :: 22%
Tue 20 Jul 2021 07:52:56 CEST :: 22%
Tue 20 Jul 2021 07:53:57 CEST :: 22%
Tue 20 Jul 2021 07:54:57 CEST :: 22%
Tue 20 Jul 2021 07:55:58 CEST :: 21%
Tue 20 Jul 2021 07:56:59 CEST :: 21%
Tue 20 Jul 2021 07:57:59 CEST :: 21%
Tue 20 Jul 2021 07:59:00 CEST :: 21%
Tue 20 Jul 2021 08:00:01 CEST :: 21%
Tue 20 Jul 2021 08:01:01 CEST :: 21%
Tue 20 Jul 2021 08:02:02 CEST :: 21%
Tue 20 Jul 2021 08:03:02 CEST :: 21%
Tue 20 Jul 2021 08:04:03 CEST :: 21%
Tue 20 Jul 2021 08:05:04 CEST :: 21%
Tue 20 Jul 2021 08:06:04 CEST :: 21%
Tue 20 Jul 2021 08:07:05 CEST :: 21%
Tue 20 Jul 2021 08:08:05 CEST :: 21%
Tue 20 Jul 2021 08:09:06 CEST :: 21%
Tue 20 Jul 2021 08:10:07 CEST :: 21%
Tue 20 Jul 2021 08:11:07 CEST :: 21%
Tue 20 Jul 2021 08:12:08 CEST :: 21%
Tue 20 Jul 2021 08:13:08 CEST :: 21%
Tue 20 Jul 2021 08:14:09 CEST :: 21%
Tue 20 Jul 2021 08:15:10 CEST :: 21%
Tue 20 Jul 2021 08:16:10 CEST :: 21%
Tue 20 Jul 2021 08:17:11 CEST :: 21%
Tue 20 Jul 2021 08:18:11 CEST :: 21%
Tue 20 Jul 2021 08:19:12 CEST :: 21%
Tue 20 Jul 2021 08:20:13 CEST :: 21%
Tue 20 Jul 2021 08:21:13 CEST :: 21%
Tue 20 Jul 2021 08:22:14 CEST :: 21%
Tue 20 Jul 2021 08:23:15 CEST :: 21%
Tue 20 Jul 2021 08:24:15 CEST :: 21%
Tue 20 Jul 2021 08:25:16 CEST :: 21%
Tue 20 Jul 2021 08:26:16 CEST :: 21%
Tue 20 Jul 2021 08:27:17 CEST :: 21%
Tue 20 Jul 2021 08:28:18 CEST :: 21%
Tue 20 Jul 2021 08:29:18 CEST :: 21%
Tue 20 Jul 2021 08:30:19 CEST :: 21%
Tue 20 Jul 2021 08:31:19 CEST :: 21%
Tue 20 Jul 2021 08:32:20 CEST :: 21%
Tue 20 Jul 2021 08:33:21 CEST :: 21%
Tue 20 Jul 2021 08:34:21 CEST :: 21%
Tue 20 Jul 2021 08:35:22 CEST :: 21%
Tue 20 Jul 2021 08:36:22 CEST :: 21%
Tue 20 Jul 2021 08:37:23 CEST :: 20%
Tue 20 Jul 2021 08:38:23 CEST :: 20%
Tue 20 Jul 2021 08:39:24 CEST :: 20%
Tue 20 Jul 2021 08:40:25 CEST :: 20%
Tue 20 Jul 2021 08:41:25 CEST :: 20%
Tue 20 Jul 2021 08:42:26 CEST :: 20%
Tue 20 Jul 2021 08:43:27 CEST :: 20%
Tue 20 Jul 2021 08:44:27 CEST :: 20%
Tue 20 Jul 2021 08:45:28 CEST :: 20%
Tue 20 Jul 2021 08:46:28 CEST :: 20%
Tue 20 Jul 2021 08:47:29 CEST :: 20%
Tue 20 Jul 2021 08:48:30 CEST :: 20%
Tue 20 Jul 2021 08:49:30 CEST :: 20%
Tue 20 Jul 2021 08:50:31 CEST :: 20%
Tue 20 Jul 2021 08:51:31 CEST :: 20%
Tue 20 Jul 2021 08:52:32 CEST :: 20%
Tue 20 Jul 2021 08:53:33 CEST :: 20%
Tue 20 Jul 2021 08:54:33 CEST :: 20%
Tue 20 Jul 2021 08:55:34 CEST :: 20%
Tue 20 Jul 2021 08:56:34 CEST :: 20%
Tue 20 Jul 2021 08:57:35 CEST :: 20%
Tue 20 Jul 2021 08:58:36 CEST :: 20%
Tue 20 Jul 2021 08:59:36 CEST :: 20%
Tue 20 Jul 2021 09:00:37 CEST :: 20%
Tue 20 Jul 2021 09:01:37 CEST :: 20%
Tue 20 Jul 2021 09:02:38 CEST :: 20%
Tue 20 Jul 2021 09:03:39 CEST :: 20%
Tue 20 Jul 2021 09:04:39 CEST :: 20%
Tue 20 Jul 2021 09:05:40 CEST :: 20%
Tue 20 Jul 2021 09:06:41 CEST :: 20%
Tue 20 Jul 2021 09:07:41 CEST :: 20%
Tue 20 Jul 2021 09:08:42 CEST :: 20%
Tue 20 Jul 2021 09:09:43 CEST :: 20%
Tue 20 Jul 2021 09:10:44 CEST :: 20%
Tue 20 Jul 2021 09:11:44 CEST :: 20%
Tue 20 Jul 2021 09:12:45 CEST :: 20%
Tue 20 Jul 2021 09:13:45 CEST :: 20%
Tue 20 Jul 2021 09:14:46 CEST :: 19%
Tue 20 Jul 2021 09:15:47 CEST :: 19%
Tue 20 Jul 2021 09:16:48 CEST :: 19%
Tue 20 Jul 2021 09:17:48 CEST :: 19%
Tue 20 Jul 2021 09:18:49 CEST :: 19%
Tue 20 Jul 2021 09:19:49 CEST :: 19%
Tue 20 Jul 2021 09:20:50 CEST :: 19%
Tue 20 Jul 2021 09:21:51 CEST :: 19%
Tue 20 Jul 2021 09:22:51 CEST :: 19%
Tue 20 Jul 2021 09:23:52 CEST :: 19%
Tue 20 Jul 2021 09:24:53 CEST :: 19%
Tue 20 Jul 2021 09:25:53 CEST :: 19%
Tue 20 Jul 2021 09:26:54 CEST :: 19%
Tue 20 Jul 2021 09:27:54 CEST :: 19%
Tue 20 Jul 2021 09:28:55 CEST :: 19%
Tue 20 Jul 2021 09:29:56 CEST :: 19%
Tue 20 Jul 2021 09:30:56 CEST :: 19%
Tue 20 Jul 2021 09:31:57 CEST :: 19%
Tue 20 Jul 2021 09:32:58 CEST :: 19%
Tue 20 Jul 2021 09:33:58 CEST :: 19%
Tue 20 Jul 2021 09:34:59 CEST :: 19%
Tue 20 Jul 2021 09:35:59 CEST :: 19%
Tue 20 Jul 2021 09:37:00 CEST :: 19%
Tue 20 Jul 2021 09:38:01 CEST :: 19%
Tue 20 Jul 2021 09:39:01 CEST :: 19%
Tue 20 Jul 2021 09:40:02 CEST :: 19%
Tue 20 Jul 2021 09:41:02 CEST :: 19%
Tue 20 Jul 2021 09:42:03 CEST :: 19%
Tue 20 Jul 2021 09:43:04 CEST :: 19%
Tue 20 Jul 2021 09:44:04 CEST :: 19%
Tue 20 Jul 2021 09:45:05 CEST :: 19%
Tue 20 Jul 2021 09:46:06 CEST :: 19%
Tue 20 Jul 2021 09:47:06 CEST :: 19%
Tue 20 Jul 2021 09:48:07 CEST :: 19%
Tue 20 Jul 2021 09:49:07 CEST :: 19%
Tue 20 Jul 2021 09:50:08 CEST :: 19%
Tue 20 Jul 2021 09:51:08 CEST :: 19%
Tue 20 Jul 2021 09:52:09 CEST :: 18%
Tue 20 Jul 2021 09:53:10 CEST :: 18%
Tue 20 Jul 2021 09:54:10 CEST :: 18%
Tue 20 Jul 2021 09:55:11 CEST :: 18%
Tue 20 Jul 2021 09:56:11 CEST :: 18%
Tue 20 Jul 2021 09:57:12 CEST :: 18%
Tue 20 Jul 2021 09:58:13 CEST :: 18%
Tue 20 Jul 2021 09:59:13 CEST :: 18%
Tue 20 Jul 2021 10:00:14 CEST :: 18%
Tue 20 Jul 2021 10:01:14 CEST :: 18%
Tue 20 Jul 2021 10:02:15 CEST :: 18%
Tue 20 Jul 2021 10:03:16 CEST :: 18%
Tue 20 Jul 2021 10:04:16 CEST :: 18%
Tue 20 Jul 2021 10:05:17 CEST :: 18%
Tue 20 Jul 2021 10:06:17 CEST :: 18%
Tue 20 Jul 2021 10:07:18 CEST :: 18%
Tue 20 Jul 2021 10:08:19 CEST :: 18%
Tue 20 Jul 2021 10:09:19 CEST :: 18%
Tue 20 Jul 2021 10:10:20 CEST :: 18%
Tue 20 Jul 2021 10:11:20 CEST :: 18%
Tue 20 Jul 2021 10:12:21 CEST :: 18%
Tue 20 Jul 2021 10:13:22 CEST :: 18%
Tue 20 Jul 2021 10:14:22 CEST :: 18%
Tue 20 Jul 2021 10:15:23 CEST :: 18%
Tue 20 Jul 2021 10:16:23 CEST :: 18%
Tue 20 Jul 2021 10:17:24 CEST :: 18%
Tue 20 Jul 2021 10:18:25 CEST :: 18%
Tue 20 Jul 2021 10:19:25 CEST :: 18%
Tue 20 Jul 2021 10:20:26 CEST :: 18%
Tue 20 Jul 2021 10:21:27 CEST :: 18%
Tue 20 Jul 2021 10:22:27 CEST :: 18%
Tue 20 Jul 2021 10:23:28 CEST :: 18%
Tue 20 Jul 2021 10:24:28 CEST :: 18%
Tue 20 Jul 2021 10:25:29 CEST :: 18%
Tue 20 Jul 2021 10:26:30 CEST :: 18%
Tue 20 Jul 2021 10:27:30 CEST :: 18%
Tue 20 Jul 2021 10:28:31 CEST :: 18%
Tue 20 Jul 2021 10:29:31 CEST :: 18%
Tue 20 Jul 2021 10:30:32 CEST :: 17%
Tue 20 Jul 2021 10:31:33 CEST :: 17%
Tue 20 Jul 2021 10:32:33 CEST :: 17%
Tue 20 Jul 2021 10:33:34 CEST :: 17%
Tue 20 Jul 2021 10:34:35 CEST :: 17%
Tue 20 Jul 2021 10:35:35 CEST :: 17%
Tue 20 Jul 2021 10:36:36 CEST :: 17%
Tue 20 Jul 2021 10:37:36 CEST :: 17%
Tue 20 Jul 2021 10:38:37 CEST :: 17%
Tue 20 Jul 2021 10:39:38 CEST :: 17%
Tue 20 Jul 2021 10:40:38 CEST :: 17%
Tue 20 Jul 2021 10:41:39 CEST :: 17%
Tue 20 Jul 2021 10:42:39 CEST :: 17%
Tue 20 Jul 2021 10:43:40 CEST :: 17%
Tue 20 Jul 2021 10:44:41 CEST :: 17%
Tue 20 Jul 2021 10:45:41 CEST :: 17%
Tue 20 Jul 2021 10:46:42 CEST :: 17%
Tue 20 Jul 2021 10:47:43 CEST :: 17%
Tue 20 Jul 2021 10:48:43 CEST :: 17%
Tue 20 Jul 2021 10:49:44 CEST :: 17%
Tue 20 Jul 2021 10:50:45 CEST :: 17%
Tue 20 Jul 2021 10:51:46 CEST :: 17%
Tue 20 Jul 2021 10:52:47 CEST :: 17%
Tue 20 Jul 2021 10:53:47 CEST :: 17%
Tue 20 Jul 2021 10:54:48 CEST :: 17%
Tue 20 Jul 2021 10:55:49 CEST :: 17%
Tue 20 Jul 2021 10:56:51 CEST :: 17%
Tue 20 Jul 2021 10:57:51 CEST :: 17%
Tue 20 Jul 2021 10:58:52 CEST :: 17%
Tue 20 Jul 2021 10:59:53 CEST :: 17%
Tue 20 Jul 2021 11:00:54 CEST :: 17%
Tue 20 Jul 2021 11:01:55 CEST :: 17%
Tue 20 Jul 2021 11:02:56 CEST :: 17%
Tue 20 Jul 2021 11:03:56 CEST :: 17%
Tue 20 Jul 2021 11:04:57 CEST :: 17%
Tue 20 Jul 2021 11:05:57 CEST :: 17%
Tue 20 Jul 2021 11:06:58 CEST :: 17%
Tue 20 Jul 2021 11:07:59 CEST :: 17%
Tue 20 Jul 2021 11:08:59 CEST :: 16%
Tue 20 Jul 2021 11:10:00 CEST :: 16%
Tue 20 Jul 2021 11:11:00 CEST :: 16%
Tue 20 Jul 2021 11:12:01 CEST :: 16%
Tue 20 Jul 2021 11:13:01 CEST :: 16%
Tue 20 Jul 2021 11:14:02 CEST :: 16%
Tue 20 Jul 2021 11:15:03 CEST :: 16%
Tue 20 Jul 2021 11:16:03 CEST :: 16%
Tue 20 Jul 2021 11:17:04 CEST :: 16%
Tue 20 Jul 2021 11:18:05 CEST :: 16%
Tue 20 Jul 2021 11:19:05 CEST :: 16%
Tue 20 Jul 2021 11:20:06 CEST :: 16%
Tue 20 Jul 2021 11:21:06 CEST :: 16%
Tue 20 Jul 2021 11:22:07 CEST :: 16%
Tue 20 Jul 2021 11:23:08 CEST :: 16%
Tue 20 Jul 2021 11:24:08 CEST :: 16%
Tue 20 Jul 2021 11:25:09 CEST :: 16%
Tue 20 Jul 2021 11:26:10 CEST :: 16%
Tue 20 Jul 2021 11:27:10 CEST :: 16%
Tue 20 Jul 2021 11:28:11 CEST :: 16%
Tue 20 Jul 2021 11:29:11 CEST :: 16%
Tue 20 Jul 2021 11:30:12 CEST :: 16%
Tue 20 Jul 2021 11:31:13 CEST :: 16%
Tue 20 Jul 2021 11:32:13 CEST :: 16%
Tue 20 Jul 2021 11:33:14 CEST :: 16%
Tue 20 Jul 2021 11:34:14 CEST :: 16%
Tue 20 Jul 2021 11:35:15 CEST :: 16%
Tue 20 Jul 2021 11:36:16 CEST :: 16%
Tue 20 Jul 2021 11:37:16 CEST :: 16%
Tue 20 Jul 2021 11:38:17 CEST :: 16%
Tue 20 Jul 2021 11:39:18 CEST :: 16%
Tue 20 Jul 2021 11:40:18 CEST :: 16%
Tue 20 Jul 2021 11:41:19 CEST :: 16%
Tue 20 Jul 2021 11:42:19 CEST :: 16%
Tue 20 Jul 2021 11:43:20 CEST :: 16%
Tue 20 Jul 2021 11:44:21 CEST :: 16%
Tue 20 Jul 2021 11:45:21 CEST :: 15%
Tue 20 Jul 2021 11:46:22 CEST :: 15%
Tue 20 Jul 2021 11:47:22 CEST :: 15%
--- Test 2 using sleep method --
Tue 20 Jul 2021 12:28:11 CEST :: 20%
Tue 20 Jul 2021 12:29:14 CEST :: 20%
Tue 20 Jul 2021 12:30:17 CEST :: 20%
Tue 20 Jul 2021 12:31:20 CEST :: 20%
Tue 20 Jul 2021 12:32:23 CEST :: 20%
Tue 20 Jul 2021 12:33:26 CEST :: 20%
Tue 20 Jul 2021 12:34:29 CEST :: 20%
Tue 20 Jul 2021 12:35:32 CEST :: 20%
Tue 20 Jul 2021 12:36:35 CEST :: 20%
Tue 20 Jul 2021 12:37:38 CEST :: 20%
Tue 20 Jul 2021 12:38:41 CEST :: 20%
Tue 20 Jul 2021 12:39:44 CEST :: 20%
Tue 20 Jul 2021 12:40:47 CEST :: 20%
Tue 20 Jul 2021 12:41:50 CEST :: 20%
Tue 20 Jul 2021 12:42:55 CEST :: 20%
Tue 20 Jul 2021 12:43:57 CEST :: 20%
Tue 20 Jul 2021 12:45:00 CEST :: 20%
Tue 20 Jul 2021 12:46:03 CEST :: 20%
Tue 20 Jul 2021 12:47:07 CEST :: 20%
Tue 20 Jul 2021 12:48:10 CEST :: 20%
Tue 20 Jul 2021 12:49:13 CEST :: 20%
Tue 20 Jul 2021 12:50:16 CEST :: 20%
Tue 20 Jul 2021 12:51:19 CEST :: 20%
Tue 20 Jul 2021 12:52:22 CEST :: 20%
Tue 20 Jul 2021 12:53:26 CEST :: 20%
Tue 20 Jul 2021 12:54:29 CEST :: 20%
Tue 20 Jul 2021 12:55:33 CEST :: 20%
Tue 20 Jul 2021 12:56:36 CEST :: 20%
Tue 20 Jul 2021 12:57:39 CEST :: 20%
Tue 20 Jul 2021 12:58:42 CEST :: 20%
Tue 20 Jul 2021 12:59:45 CEST :: 20%
Tue 20 Jul 2021 13:00:48 CEST :: 20%
Tue 20 Jul 2021 13:01:51 CEST :: 20%
Tue 20 Jul 2021 13:02:54 CEST :: 20%
Tue 20 Jul 2021 13:03:57 CEST :: 20%
Tue 20 Jul 2021 13:05:00 CEST :: 20%
Tue 20 Jul 2021 13:06:03 CEST :: 20%
Tue 20 Jul 2021 13:07:06 CEST :: 20%
Tue 20 Jul 2021 13:08:11 CEST :: 20%
Tue 20 Jul 2021 13:09:15 CEST :: 20%
Tue 20 Jul 2021 13:10:18 CEST :: 20%
Tue 20 Jul 2021 13:11:23 CEST :: 20%
Tue 20 Jul 2021 13:12:26 CEST :: 20%
Tue 20 Jul 2021 13:13:29 CEST :: 20%
Tue 20 Jul 2021 13:14:34 CEST :: 20%
Tue 20 Jul 2021 13:15:38 CEST :: 20%
Tue 20 Jul 2021 13:16:43 CEST :: 20%
Tue 20 Jul 2021 13:17:48 CEST :: 20%
Tue 20 Jul 2021 13:18:53 CEST :: 20%
Tue 20 Jul 2021 13:19:58 CEST :: 20%
Tue 20 Jul 2021 13:21:01 CEST :: 20%
Tue 20 Jul 2021 13:22:06 CEST :: 20%
Tue 20 Jul 2021 13:23:08 CEST :: 20%
Tue 20 Jul 2021 13:24:13 CEST :: 20%
Tue 20 Jul 2021 13:25:16 CEST :: 20%
Tue 20 Jul 2021 13:26:19 CEST :: 20%
Tue 20 Jul 2021 13:27:22 CEST :: 20%
Tue 20 Jul 2021 13:28:25 CEST :: 20%
Tue 20 Jul 2021 13:29:28 CEST :: 20%
Tue 20 Jul 2021 13:30:31 CEST :: 20%
Tue 20 Jul 2021 13:31:35 CEST :: 20%
Tue 20 Jul 2021 13:32:38 CEST :: 20%
Tue 20 Jul 2021 13:33:41 CEST :: 20%
Tue 20 Jul 2021 13:34:44 CEST :: 20%
Tue 20 Jul 2021 13:35:48 CEST :: 20%
Tue 20 Jul 2021 13:36:51 CEST :: 20%
Tue 20 Jul 2021 13:37:54 CEST :: 20%
Tue 20 Jul 2021 13:38:57 CEST :: 20%
Tue 20 Jul 2021 13:40:00 CEST :: 20%
Tue 20 Jul 2021 13:41:03 CEST :: 20%
Tue 20 Jul 2021 13:42:06 CEST :: 20%
Tue 20 Jul 2021 13:43:10 CEST :: 20%
Tue 20 Jul 2021 13:44:13 CEST :: 20%
Tue 20 Jul 2021 13:45:16 CEST :: 20%
Tue 20 Jul 2021 13:46:19 CEST :: 20%
Tue 20 Jul 2021 13:47:22 CEST :: 20%
Tue 20 Jul 2021 13:48:25 CEST :: 20%
Tue 20 Jul 2021 13:49:28 CEST :: 20%
Tue 20 Jul 2021 13:50:31 CEST :: 20%
Tue 20 Jul 2021 13:51:34 CEST :: 20%
Tue 20 Jul 2021 13:52:38 CEST :: 20%
Tue 20 Jul 2021 13:53:41 CEST :: 20%
Tue 20 Jul 2021 13:54:44 CEST :: 20%
Tue 20 Jul 2021 13:55:47 CEST :: 20%
Tue 20 Jul 2021 13:56:50 CEST :: 20%
Tue 20 Jul 2021 13:57:53 CEST :: 20%
Tue 20 Jul 2021 13:58:56 CEST :: 20%
Tue 20 Jul 2021 13:59:59 CEST :: 20%
Tue 20 Jul 2021 14:01:02 CEST :: 20%
Tue 20 Jul 2021 14:02:05 CEST :: 20%
Tue 20 Jul 2021 14:03:08 CEST :: 20%
Tue 20 Jul 2021 14:04:11 CEST :: 20%
Tue 20 Jul 2021 14:05:14 CEST :: 20%
Tue 20 Jul 2021 14:06:17 CEST :: 20%
Tue 20 Jul 2021 14:07:21 CEST :: 20%
Tue 20 Jul 2021 14:08:24 CEST :: 20%
Tue 20 Jul 2021 14:09:27 CEST :: 20%
Tue 20 Jul 2021 14:10:30 CEST :: 20%
Tue 20 Jul 2021 14:11:33 CEST :: 20%
Tue 20 Jul 2021 14:12:36 CEST :: 20%
Tue 20 Jul 2021 14:13:39 CEST :: 20%
Tue 20 Jul 2021 14:14:42 CEST :: 20%
Tue 20 Jul 2021 14:15:45 CEST :: 20%
Tue 20 Jul 2021 14:16:48 CEST :: 20%
Tue 20 Jul 2021 14:17:50 CEST :: 20%
Tue 20 Jul 2021 14:18:53 CEST :: 20%
Tue 20 Jul 2021 14:19:56 CEST :: 20%
Tue 20 Jul 2021 14:20:59 CEST :: 20%
Tue 20 Jul 2021 14:22:02 CEST :: 20%
Tue 20 Jul 2021 14:23:04 CEST :: 20%
Tue 20 Jul 2021 14:24:08 CEST :: 20%
Tue 20 Jul 2021 14:25:10 CEST :: 20%
Tue 20 Jul 2021 14:26:13 CEST :: 20%
Tue 20 Jul 2021 14:27:16 CEST :: 20%
Tue 20 Jul 2021 14:28:19 CEST :: 20%
Tue 20 Jul 2021 14:29:23 CEST :: 20%
Tue 20 Jul 2021 14:30:27 CEST :: 20%
Tue 20 Jul 2021 14:31:30 CEST :: 20%
Tue 20 Jul 2021 14:32:33 CEST :: 20%
Tue 20 Jul 2021 14:33:37 CEST :: 20%
Tue 20 Jul 2021 14:34:39 CEST :: 20%
Tue 20 Jul 2021 14:35:42 CEST :: 20%
Tue 20 Jul 2021 14:36:46 CEST :: 20%
Tue 20 Jul 2021 14:37:49 CEST :: 20%
Tue 20 Jul 2021 14:38:52 CEST :: 20%
Tue 20 Jul 2021 14:39:57 CEST :: 20%
Tue 20 Jul 2021 14:41:01 CEST :: 20%
Tue 20 Jul 2021 14:42:04 CEST :: 20%
Tue 20 Jul 2021 14:43:07 CEST :: 20%
Tue 20 Jul 2021 14:44:10 CEST :: 20%
Tue 20 Jul 2021 14:45:13 CEST :: 20%
Tue 20 Jul 2021 14:46:17 CEST :: 20%
Tue 20 Jul 2021 14:47:20 CEST :: 20%
Tue 20 Jul 2021 14:48:23 CEST :: 20%
Tue 20 Jul 2021 14:49:26 CEST :: 20%
Tue 20 Jul 2021 14:50:29 CEST :: 20%
Tue 20 Jul 2021 14:51:34 CEST :: 20%
Tue 20 Jul 2021 14:52:39 CEST :: 20%
Tue 20 Jul 2021 14:53:42 CEST :: 20%
Tue 20 Jul 2021 14:54:46 CEST :: 20%
Tue 20 Jul 2021 14:55:49 CEST :: 20%
Tue 20 Jul 2021 14:56:52 CEST :: 20%
Tue 20 Jul 2021 14:57:55 CEST :: 20%
Tue 20 Jul 2021 14:58:58 CEST :: 20%
Tue 20 Jul 2021 15:00:01 CEST :: 20%
Tue 20 Jul 2021 15:01:04 CEST :: 20%
Tue 20 Jul 2021 15:02:07 CEST :: 20%
Tue 20 Jul 2021 15:03:10 CEST :: 20%
Tue 20 Jul 2021 15:04:13 CEST :: 20%
Tue 20 Jul 2021 15:05:16 CEST :: 20%
Tue 20 Jul 2021 15:06:19 CEST :: 20%
Tue 20 Jul 2021 15:07:22 CEST :: 20%
Tue 20 Jul 2021 15:08:25 CEST :: 20%
Tue 20 Jul 2021 15:09:28 CEST :: 20%
Tue 20 Jul 2021 15:10:31 CEST :: 20%
Tue 20 Jul 2021 15:11:34 CEST :: 20%
Tue 20 Jul 2021 15:12:37 CEST :: 20%
Tue 20 Jul 2021 15:13:40 CEST :: 20%
Tue 20 Jul 2021 15:14:43 CEST :: 20%
Tue 20 Jul 2021 15:15:46 CEST :: 20%
Tue 20 Jul 2021 15:16:49 CEST :: 20%
Tue 20 Jul 2021 15:17:52 CEST :: 20%
Tue 20 Jul 2021 15:18:55 CEST :: 20%
Tue 20 Jul 2021 15:19:58 CEST :: 20%
Tue 20 Jul 2021 15:21:01 CEST :: 20%
Tue 20 Jul 2021 15:22:04 CEST :: 20%
Tue 20 Jul 2021 15:23:07 CEST :: 20%
Tue 20 Jul 2021 15:24:10 CEST :: 20%
Tue 20 Jul 2021 15:25:13 CEST :: 20%
Tue 20 Jul 2021 15:26:16 CEST :: 20%
Tue 20 Jul 2021 15:27:19 CEST :: 20%
Tue 20 Jul 2021 15:28:22 CEST :: 20%
Tue 20 Jul 2021 15:29:25 CEST :: 20%
Tue 20 Jul 2021 15:30:28 CEST :: 20%
Tue 20 Jul 2021 15:31:31 CEST :: 20%
Tue 20 Jul 2021 15:32:34 CEST :: 20%
Tue 20 Jul 2021 15:33:37 CEST :: 20%
Tue 20 Jul 2021 15:34:40 CEST :: 20%
Tue 20 Jul 2021 15:35:43 CEST :: 20%
Tue 20 Jul 2021 15:36:46 CEST :: 20%
Tue 20 Jul 2021 15:37:49 CEST :: 20%
Tue 20 Jul 2021 15:38:52 CEST :: 20%
Tue 20 Jul 2021 15:39:55 CEST :: 20%
Tue 20 Jul 2021 15:40:58 CEST :: 20%
Tue 20 Jul 2021 15:42:01 CEST :: 20%
Tue 20 Jul 2021 15:43:04 CEST :: 20%
Tue 20 Jul 2021 15:44:07 CEST :: 20%
Tue 20 Jul 2021 15:45:10 CEST :: 20%
Tue 20 Jul 2021 15:46:13 CEST :: 20%
Tue 20 Jul 2021 15:47:16 CEST :: 20%
Tue 20 Jul 2021 15:48:19 CEST :: 20%
Tue 20 Jul 2021 15:49:22 CEST :: 20%
Tue 20 Jul 2021 15:50:25 CEST :: 20%
Tue 20 Jul 2021 15:51:28 CEST :: 20%
Tue 20 Jul 2021 15:52:31 CEST :: 20%
Tue 20 Jul 2021 15:53:34 CEST :: 20%
Tue 20 Jul 2021 15:54:37 CEST :: 20%
Tue 20 Jul 2021 15:55:40 CEST :: 20%
Tue 20 Jul 2021 15:56:43 CEST :: 20%
Tue 20 Jul 2021 15:57:46 CEST :: 20%
Tue 20 Jul 2021 15:58:49 CEST :: 20%
Tue 20 Jul 2021 15:59:52 CEST :: 20%
Tue 20 Jul 2021 16:00:56 CEST :: 20%
Tue 20 Jul 2021 16:02:00 CEST :: 20%
Tue 20 Jul 2021 16:03:03 CEST :: 20%
Tue 20 Jul 2021 16:04:06 CEST :: 20%
Tue 20 Jul 2021 16:05:09 CEST :: 20%
Tue 20 Jul 2021 16:06:12 CEST :: 20%
Tue 20 Jul 2021 16:07:15 CEST :: 20%
Tue 20 Jul 2021 16:08:18 CEST :: 20%
Tue 20 Jul 2021 16:09:21 CEST :: 20%
Tue 20 Jul 2021 16:10:24 CEST :: 20%
Tue 20 Jul 2021 16:11:27 CEST :: 20%
Tue 20 Jul 2021 16:12:31 CEST :: 20%
Tue 20 Jul 2021 16:13:34 CEST :: 20%
Tue 20 Jul 2021 16:14:37 CEST :: 20%
Tue 20 Jul 2021 16:15:40 CEST :: 20%
Tue 20 Jul 2021 16:16:43 CEST :: 20%
Tue 20 Jul 2021 16:17:46 CEST :: 20%
Tue 20 Jul 2021 16:18:49 CEST :: 20%
Tue 20 Jul 2021 16:19:52 CEST :: 20%
Tue 20 Jul 2021 16:20:59 CEST :: 20%
Tue 20 Jul 2021 16:22:02 CEST :: 20%
Tue 20 Jul 2021 16:23:05 CEST :: 20%
Tue 20 Jul 2021 16:24:08 CEST :: 20%
Tue 20 Jul 2021 16:25:11 CEST :: 20%
Tue 20 Jul 2021 16:26:14 CEST :: 20%
Tue 20 Jul 2021 16:27:17 CEST :: 20%
Tue 20 Jul 2021 16:28:20 CEST :: 20%
Tue 20 Jul 2021 16:29:23 CEST :: 20%
Tue 20 Jul 2021 16:30:26 CEST :: 20%
Tue 20 Jul 2021 16:31:30 CEST :: 20%
Tue 20 Jul 2021 16:32:33 CEST :: 20%
Tue 20 Jul 2021 16:33:36 CEST :: 20%
Tue 20 Jul 2021 16:34:39 CEST :: 20%
Tue 20 Jul 2021 16:35:43 CEST :: 20%
Tue 20 Jul 2021 16:36:48 CEST :: 20%
Tue 20 Jul 2021 16:37:58 CEST :: 20%
Tue 20 Jul 2021 16:39:02 CEST :: 20%
Tue 20 Jul 2021 16:40:05 CEST :: 20%
Tue 20 Jul 2021 16:41:09 CEST :: 20%
Tue 20 Jul 2021 16:42:13 CEST :: 20%
Tue 20 Jul 2021 16:43:16 CEST :: 20%
Tue 20 Jul 2021 16:44:20 CEST :: 20%
Tue 20 Jul 2021 16:45:23 CEST :: 20%
Tue 20 Jul 2021 16:46:26 CEST :: 20%
Tue 20 Jul 2021 16:47:29 CEST :: 20%
Tue 20 Jul 2021 16:48:32 CEST :: 20%
Tue 20 Jul 2021 16:49:35 CEST :: 20%
Tue 20 Jul 2021 16:50:38 CEST :: 20%
Tue 20 Jul 2021 16:51:41 CEST :: 20%
Tue 20 Jul 2021 16:52:44 CEST :: 20%
Tue 20 Jul 2021 16:53:47 CEST :: 20%
Tue 20 Jul 2021 16:54:50 CEST :: 20%
Tue 20 Jul 2021 16:55:53 CEST :: 20%
Tue 20 Jul 2021 16:56:56 CEST :: 20%
Tue 20 Jul 2021 16:57:59 CEST :: 20%
Tue 20 Jul 2021 16:59:02 CEST :: 20%
Tue 20 Jul 2021 17:00:05 CEST :: 20%
Tue 20 Jul 2021 17:01:08 CEST :: 20%
Tue 20 Jul 2021 17:02:11 CEST :: 20%
Tue 20 Jul 2021 17:03:14 CEST :: 20%
Tue 20 Jul 2021 17:04:17 CEST :: 20%
Tue 20 Jul 2021 17:05:20 CEST :: 20%
Tue 20 Jul 2021 17:06:23 CEST :: 20%
Tue 20 Jul 2021 17:07:26 CEST :: 20%
Tue 20 Jul 2021 17:08:29 CEST :: 20%
Tue 20 Jul 2021 17:09:32 CEST :: 20%
Tue 20 Jul 2021 17:10:35 CEST :: 20%
Tue 20 Jul 2021 17:11:38 CEST :: 20%
Tue 20 Jul 2021 17:12:41 CEST :: 20%
Tue 20 Jul 2021 17:13:44 CEST :: 20%
Tue 20 Jul 2021 17:14:46 CEST :: 20%
Tue 20 Jul 2021 17:15:50 CEST :: 20%
Tue 20 Jul 2021 17:16:53 CEST :: 20%
Tue 20 Jul 2021 17:17:55 CEST :: 20%
Tue 20 Jul 2021 17:18:59 CEST :: 20%
Tue 20 Jul 2021 17:20:02 CEST :: 20%
Tue 20 Jul 2021 17:21:05 CEST :: 20%
Tue 20 Jul 2021 17:22:07 CEST :: 20%
Tue 20 Jul 2021 17:23:10 CEST :: 20%
Tue 20 Jul 2021 17:24:13 CEST :: 20%
Tue 20 Jul 2021 17:25:16 CEST :: 20%
Tue 20 Jul 2021 17:26:20 CEST :: 20%
Tue 20 Jul 2021 17:27:23 CEST :: 20%
Tue 20 Jul 2021 17:28:26 CEST :: 20%
Tue 20 Jul 2021 17:29:29 CEST :: 20%
Tue 20 Jul 2021 17:30:32 CEST :: 20%
Tue 20 Jul 2021 17:31:35 CEST :: 20%
Tue 20 Jul 2021 17:32:38 CEST :: 20%
Tue 20 Jul 2021 17:33:41 CEST :: 20%
Tue 20 Jul 2021 17:34:44 CEST :: 20%
Tue 20 Jul 2021 17:35:47 CEST :: 20%
Tue 20 Jul 2021 17:36:50 CEST :: 20%
Tue 20 Jul 2021 17:37:53 CEST :: 20%
Tue 20 Jul 2021 17:38:56 CEST :: 20%
Tue 20 Jul 2021 17:39:59 CEST :: 20%
Tue 20 Jul 2021 17:41:02 CEST :: 20%
Tue 20 Jul 2021 17:42:05 CEST :: 20%
Tue 20 Jul 2021 17:43:08 CEST :: 20%
Tue 20 Jul 2021 17:44:11 CEST :: 20%
Tue 20 Jul 2021 17:45:14 CEST :: 20%
Tue 20 Jul 2021 17:46:17 CEST :: 20%
Tue 20 Jul 2021 17:47:20 CEST :: 20%
Tue 20 Jul 2021 17:48:23 CEST :: 20%
Tue 20 Jul 2021 17:49:26 CEST :: 20%
Tue 20 Jul 2021 17:50:29 CEST :: 20%
Tue 20 Jul 2021 17:51:32 CEST :: 20%
Tue 20 Jul 2021 17:52:35 CEST :: 20%
Tue 20 Jul 2021 17:53:38 CEST :: 20%
Tue 20 Jul 2021 17:54:41 CEST :: 20%
Tue 20 Jul 2021 17:55:44 CEST :: 20%
Tue 20 Jul 2021 17:56:47 CEST :: 20%
Tue 20 Jul 2021 17:57:50 CEST :: 20%
Tue 20 Jul 2021 17:58:53 CEST :: 20%
Tue 20 Jul 2021 17:59:56 CEST :: 20%
Tue 20 Jul 2021 18:00:59 CEST :: 20%
Tue 20 Jul 2021 18:02:02 CEST :: 20%
Tue 20 Jul 2021 18:03:05 CEST :: 20%
Tue 20 Jul 2021 18:04:10 CEST :: 20%
Tue 20 Jul 2021 18:05:13 CEST :: 20%
Tue 20 Jul 2021 18:06:16 CEST :: 20%
Tue 20 Jul 2021 18:07:19 CEST :: 20%
Tue 20 Jul 2021 18:08:24 CEST :: 20%
Tue 20 Jul 2021 18:09:27 CEST :: 20%
Tue 20 Jul 2021 18:10:32 CEST :: 20%
Tue 20 Jul 2021 18:11:35 CEST :: 20%
Tue 20 Jul 2021 18:12:38 CEST :: 20%
Tue 20 Jul 2021 18:13:41 CEST :: 20%
Tue 20 Jul 2021 18:14:44 CEST :: 20%
Tue 20 Jul 2021 18:15:49 CEST :: 20%
Tue 20 Jul 2021 18:16:52 CEST :: 20%
Tue 20 Jul 2021 18:17:55 CEST :: 20%
Tue 20 Jul 2021 18:18:58 CEST :: 20%
Tue 20 Jul 2021 18:20:01 CEST :: 20%
Tue 20 Jul 2021 18:21:06 CEST :: 20%
Tue 20 Jul 2021 18:22:09 CEST :: 20%
Tue 20 Jul 2021 18:23:12 CEST :: 20%
Tue 20 Jul 2021 18:24:16 CEST :: 20%
Tue 20 Jul 2021 18:25:19 CEST :: 20%
Tue 20 Jul 2021 18:26:21 CEST :: 20%
Tue 20 Jul 2021 18:27:24 CEST :: 20%
Tue 20 Jul 2021 18:28:27 CEST :: 20%
Tue 20 Jul 2021 18:29:30 CEST :: 20%
Tue 20 Jul 2021 18:30:33 CEST :: 20%
Tue 20 Jul 2021 18:31:36 CEST :: 20%
Tue 20 Jul 2021 18:32:39 CEST :: 20%
Tue 20 Jul 2021 18:33:42 CEST :: 20%
Tue 20 Jul 2021 18:34:45 CEST :: 20%
Tue 20 Jul 2021 18:35:49 CEST :: 20%
Tue 20 Jul 2021 18:36:52 CEST :: 20%
Tue 20 Jul 2021 18:37:55 CEST :: 20%
Tue 20 Jul 2021 18:38:58 CEST :: 20%
Tue 20 Jul 2021 18:40:01 CEST :: 20%
Tue 20 Jul 2021 18:41:04 CEST :: 20%
Tue 20 Jul 2021 18:42:07 CEST :: 20%
Tue 20 Jul 2021 18:43:10 CEST :: 20%
Tue 20 Jul 2021 18:44:13 CEST :: 20%
Tue 20 Jul 2021 18:45:16 CEST :: 20%
Tue 20 Jul 2021 18:46:19 CEST :: 20%
Tue 20 Jul 2021 18:47:22 CEST :: 20%
Tue 20 Jul 2021 18:48:25 CEST :: 20%
Tue 20 Jul 2021 18:49:28 CEST :: 20%
Tue 20 Jul 2021 18:50:31 CEST :: 20%
Tue 20 Jul 2021 18:51:34 CEST :: 20%
Tue 20 Jul 2021 18:52:38 CEST :: 20%
Tue 20 Jul 2021 18:53:41 CEST :: 20%
Tue 20 Jul 2021 18:54:44 CEST :: 20%
Tue 20 Jul 2021 18:55:47 CEST :: 20%
Tue 20 Jul 2021 18:56:50 CEST :: 20%
Tue 20 Jul 2021 18:57:53 CEST :: 20%
Tue 20 Jul 2021 18:58:57 CEST :: 20%
Tue 20 Jul 2021 19:00:01 CEST :: 20%
Tue 20 Jul 2021 19:01:04 CEST :: 20%
Tue 20 Jul 2021 19:02:07 CEST :: 20%
Tue 20 Jul 2021 19:03:11 CEST :: 20%
Tue 20 Jul 2021 19:04:14 CEST :: 20%
Tue 20 Jul 2021 19:05:17 CEST :: 20%
Tue 20 Jul 2021 19:06:21 CEST :: 20%
Tue 20 Jul 2021 19:07:24 CEST :: 20%
Tue 20 Jul 2021 19:08:27 CEST :: 20%
Tue 20 Jul 2021 19:09:30 CEST :: 20%
Tue 20 Jul 2021 19:10:33 CEST :: 20%
Tue 20 Jul 2021 19:11:36 CEST :: 20%
Tue 20 Jul 2021 19:12:39 CEST :: 20%
Tue 20 Jul 2021 19:13:42 CEST :: 20%
Tue 20 Jul 2021 19:14:45 CEST :: 20%
Tue 20 Jul 2021 19:15:49 CEST :: 20%
Tue 20 Jul 2021 19:16:52 CEST :: 20%
Tue 20 Jul 2021 19:17:55 CEST :: 20%
Tue 20 Jul 2021 19:18:58 CEST :: 20%
Tue 20 Jul 2021 19:20:02 CEST :: 20%
Tue 20 Jul 2021 19:21:05 CEST :: 20%
Tue 20 Jul 2021 19:22:09 CEST :: 20%
Tue 20 Jul 2021 19:23:12 CEST :: 20%
Tue 20 Jul 2021 19:24:15 CEST :: 20%
Tue 20 Jul 2021 19:25:18 CEST :: 20%
Tue 20 Jul 2021 19:26:23 CEST :: 20%
Tue 20 Jul 2021 19:27:27 CEST :: 20%
Tue 20 Jul 2021 19:28:30 CEST :: 20%
Tue 20 Jul 2021 19:29:33 CEST :: 20%
Tue 20 Jul 2021 19:30:36 CEST :: 20%
Tue 20 Jul 2021 19:31:39 CEST :: 20%
Tue 20 Jul 2021 19:32:42 CEST :: 20%
Tue 20 Jul 2021 19:33:45 CEST :: 20%
Tue 20 Jul 2021 19:34:48 CEST :: 20%
Tue 20 Jul 2021 19:35:51 CEST :: 20%
Tue 20 Jul 2021 19:36:54 CEST :: 20%
Tue 20 Jul 2021 19:37:58 CEST :: 20%
Tue 20 Jul 2021 19:39:02 CEST :: 20%
Tue 20 Jul 2021 19:40:05 CEST :: 20%
Tue 20 Jul 2021 19:41:08 CEST :: 20%
Tue 20 Jul 2021 19:42:11 CEST :: 20%
Tue 20 Jul 2021 19:43:15 CEST :: 20%
Tue 20 Jul 2021 19:44:20 CEST :: 20%
Tue 20 Jul 2021 19:45:24 CEST :: 20%
Tue 20 Jul 2021 19:46:27 CEST :: 20%
Tue 20 Jul 2021 19:47:30 CEST :: 20%
Tue 20 Jul 2021 19:48:35 CEST :: 20%
Tue 20 Jul 2021 19:49:38 CEST :: 20%
Tue 20 Jul 2021 19:50:42 CEST :: 20%
Tue 20 Jul 2021 19:51:46 CEST :: 20%
Tue 20 Jul 2021 19:52:49 CEST :: 20%
Tue 20 Jul 2021 19:53:52 CEST :: 20%
Tue 20 Jul 2021 19:54:56 CEST :: 20%
Tue 20 Jul 2021 19:56:01 CEST :: 20%
Tue 20 Jul 2021 19:57:05 CEST :: 20%
Tue 20 Jul 2021 19:58:08 CEST :: 20%
Tue 20 Jul 2021 19:59:11 CEST :: 20%
Tue 20 Jul 2021 20:00:15 CEST :: 20%
Tue 20 Jul 2021 20:01:19 CEST :: 20%
Tue 20 Jul 2021 20:02:23 CEST :: 20%
Tue 20 Jul 2021 20:03:26 CEST :: 20%
Tue 20 Jul 2021 20:04:29 CEST :: 20%
Tue 20 Jul 2021 20:05:33 CEST :: 20%
Tue 20 Jul 2021 20:06:36 CEST :: 20%
Tue 20 Jul 2021 20:07:39 CEST :: 20%
Tue 20 Jul 2021 20:08:42 CEST :: 20%
Tue 20 Jul 2021 20:09:45 CEST :: 20%
Tue 20 Jul 2021 20:10:48 CEST :: 20%
Tue 20 Jul 2021 20:11:51 CEST :: 20%
Tue 20 Jul 2021 20:12:56 CEST :: 20%
Tue 20 Jul 2021 20:14:00 CEST :: 20%
Tue 20 Jul 2021 20:15:02 CEST :: 20%
Tue 20 Jul 2021 20:16:05 CEST :: 20%
Tue 20 Jul 2021 20:17:08 CEST :: 20%
Tue 20 Jul 2021 20:18:11 CEST :: 20%
Tue 20 Jul 2021 20:19:15 CEST :: 20%
Tue 20 Jul 2021 20:20:18 CEST :: 20%
Tue 20 Jul 2021 20:21:21 CEST :: 20%
Tue 20 Jul 2021 20:22:24 CEST :: 20%
Tue 20 Jul 2021 20:23:27 CEST :: 20%
Tue 20 Jul 2021 20:24:30 CEST :: 20%
Tue 20 Jul 2021 20:25:33 CEST :: 20%
Tue 20 Jul 2021 20:26:36 CEST :: 20%
Tue 20 Jul 2021 20:27:39 CEST :: 20%
Tue 20 Jul 2021 20:28:42 CEST :: 20%
Tue 20 Jul 2021 20:29:45 CEST :: 20%
Tue 20 Jul 2021 20:30:48 CEST :: 20%
Tue 20 Jul 2021 20:31:51 CEST :: 20%
Tue 20 Jul 2021 20:32:54 CEST :: 20%
Tue 20 Jul 2021 20:33:57 CEST :: 20%
Tue 20 Jul 2021 20:35:00 CEST :: 20%
Tue 20 Jul 2021 20:36:03 CEST :: 20%
Tue 20 Jul 2021 20:37:06 CEST :: 20%
Tue 20 Jul 2021 20:38:09 CEST :: 20%
Tue 20 Jul 2021 20:39:12 CEST :: 20%
Tue 20 Jul 2021 20:40:15 CEST :: 20%
Tue 20 Jul 2021 20:41:18 CEST :: 20%
Tue 20 Jul 2021 20:42:21 CEST :: 20%
Tue 20 Jul 2021 20:43:24 CEST :: 20%
Tue 20 Jul 2021 20:44:27 CEST :: 20%
Tue 20 Jul 2021 20:45:30 CEST :: 20%
Tue 20 Jul 2021 20:46:33 CEST :: 20%
Tue 20 Jul 2021 20:47:36 CEST :: 20%
Tue 20 Jul 2021 20:48:39 CEST :: 20%
Tue 20 Jul 2021 20:49:45 CEST :: 20%
Tue 20 Jul 2021 20:50:51 CEST :: 20%
Tue 20 Jul 2021 20:51:54 CEST :: 20%
Tue 20 Jul 2021 20:52:56 CEST :: 20%
Tue 20 Jul 2021 20:53:59 CEST :: 20%
Tue 20 Jul 2021 20:55:02 CEST :: 20%
Tue 20 Jul 2021 20:56:05 CEST :: 20%
Tue 20 Jul 2021 20:57:08 CEST :: 20%
Tue 20 Jul 2021 20:58:11 CEST :: 20%
Tue 20 Jul 2021 20:59:14 CEST :: 20%
Tue 20 Jul 2021 21:00:17 CEST :: 20%
Tue 20 Jul 2021 21:01:20 CEST :: 20%
Tue 20 Jul 2021 21:02:23 CEST :: 20%
Tue 20 Jul 2021 21:03:26 CEST :: 20%
Tue 20 Jul 2021 21:04:29 CEST :: 20%
Tue 20 Jul 2021 21:05:32 CEST :: 20%
Tue 20 Jul 2021 21:06:35 CEST :: 20%
Tue 20 Jul 2021 21:07:38 CEST :: 20%
Tue 20 Jul 2021 21:08:41 CEST :: 20%
Tue 20 Jul 2021 21:09:44 CEST :: 20%
Tue 20 Jul 2021 21:10:47 CEST :: 20%
Tue 20 Jul 2021 21:11:50 CEST :: 20%
Tue 20 Jul 2021 21:12:53 CEST :: 20%
Tue 20 Jul 2021 21:13:56 CEST :: 20%
Tue 20 Jul 2021 21:14:59 CEST :: 20%
Tue 20 Jul 2021 21:16:02 CEST :: 20%
Tue 20 Jul 2021 21:17:05 CEST :: 20%
Tue 20 Jul 2021 21:18:10 CEST :: 20%
Tue 20 Jul 2021 21:19:12 CEST :: 20%
Tue 20 Jul 2021 21:20:15 CEST :: 20%
Tue 20 Jul 2021 21:21:18 CEST :: 20%
Tue 20 Jul 2021 21:22:21 CEST :: 20%
Tue 20 Jul 2021 21:23:24 CEST :: 20%
Tue 20 Jul 2021 21:24:27 CEST :: 20%
Tue 20 Jul 2021 21:25:30 CEST :: 20%
Tue 20 Jul 2021 21:26:36 CEST :: 20%
Tue 20 Jul 2021 21:27:41 CEST :: 20%
Tue 20 Jul 2021 21:28:44 CEST :: 20%
Tue 20 Jul 2021 21:29:48 CEST :: 20%
Tue 20 Jul 2021 21:30:51 CEST :: 20%
Tue 20 Jul 2021 21:31:56 CEST :: 20%
Tue 20 Jul 2021 21:32:58 CEST :: 20%
Tue 20 Jul 2021 21:34:01 CEST :: 20%
Tue 20 Jul 2021 21:35:04 CEST :: 20%
Tue 20 Jul 2021 21:36:07 CEST :: 20%
Tue 20 Jul 2021 21:37:09 CEST :: 20%
Tue 20 Jul 2021 21:38:12 CEST :: 20%
Tue 20 Jul 2021 21:39:15 CEST :: 20%
Tue 20 Jul 2021 21:40:18 CEST :: 20%
Tue 20 Jul 2021 21:41:21 CEST :: 20%
Tue 20 Jul 2021 21:42:24 CEST :: 20%
Tue 20 Jul 2021 21:43:27 CEST :: 20%
Tue 20 Jul 2021 21:44:30 CEST :: 20%
Tue 20 Jul 2021 21:45:33 CEST :: 20%
Tue 20 Jul 2021 21:46:36 CEST :: 20%
Tue 20 Jul 2021 21:47:39 CEST :: 20%
Tue 20 Jul 2021 21:48:42 CEST :: 20%
Tue 20 Jul 2021 21:49:45 CEST :: 20%
Tue 20 Jul 2021 21:50:48 CEST :: 20%
Tue 20 Jul 2021 21:51:51 CEST :: 20%
Tue 20 Jul 2021 21:52:54 CEST :: 20%
Tue 20 Jul 2021 21:53:57 CEST :: 20%
Tue 20 Jul 2021 21:55:00 CEST :: 20%
Tue 20 Jul 2021 21:56:03 CEST :: 20%
Tue 20 Jul 2021 21:57:06 CEST :: 20%
Tue 20 Jul 2021 21:58:09 CEST :: 20%
Tue 20 Jul 2021 21:59:12 CEST :: 20%
Tue 20 Jul 2021 22:00:15 CEST :: 20%
Tue 20 Jul 2021 22:01:18 CEST :: 20%
Tue 20 Jul 2021 22:02:21 CEST :: 20%
Tue 20 Jul 2021 22:03:24 CEST :: 20%
Tue 20 Jul 2021 22:04:27 CEST :: 20%
Tue 20 Jul 2021 22:05:30 CEST :: 20%
Tue 20 Jul 2021 22:06:33 CEST :: 20%
Tue 20 Jul 2021 22:07:36 CEST :: 20%
Tue 20 Jul 2021 22:08:39 CEST :: 20%
Tue 20 Jul 2021 22:09:43 CEST :: 20%
Tue 20 Jul 2021 22:10:46 CEST :: 20%
Tue 20 Jul 2021 22:11:49 CEST :: 20%
Tue 20 Jul 2021 22:12:52 CEST :: 20%
Tue 20 Jul 2021 22:13:55 CEST :: 20%
Tue 20 Jul 2021 22:14:58 CEST :: 20%
Tue 20 Jul 2021 22:16:02 CEST :: 20%
Tue 20 Jul 2021 22:17:05 CEST :: 20%
Tue 20 Jul 2021 22:18:08 CEST :: 20%
Tue 20 Jul 2021 22:19:11 CEST :: 20%
Tue 20 Jul 2021 22:20:14 CEST :: 20%
Tue 20 Jul 2021 22:21:17 CEST :: 20%
Tue 20 Jul 2021 22:22:20 CEST :: 20%
Tue 20 Jul 2021 22:23:23 CEST :: 20%
Tue 20 Jul 2021 22:24:26 CEST :: 20%
Tue 20 Jul 2021 22:25:29 CEST :: 20%
Tue 20 Jul 2021 22:26:33 CEST :: 20%
Tue 20 Jul 2021 22:27:36 CEST :: 20%
Tue 20 Jul 2021 22:28:39 CEST :: 20%
Tue 20 Jul 2021 22:29:42 CEST :: 20%
Tue 20 Jul 2021 22:30:46 CEST :: 20%
Tue 20 Jul 2021 22:31:49 CEST :: 20%
Tue 20 Jul 2021 22:32:52 CEST :: 20%
Tue 20 Jul 2021 22:33:56 CEST :: 20%
Tue 20 Jul 2021 22:34:59 CEST :: 20%
Tue 20 Jul 2021 22:36:02 CEST :: 20%
Tue 20 Jul 2021 22:37:05 CEST :: 20%
Tue 20 Jul 2021 22:38:08 CEST :: 20%
Tue 20 Jul 2021 22:39:11 CEST :: 20%
Tue 20 Jul 2021 22:40:14 CEST :: 20%
Tue 20 Jul 2021 22:41:17 CEST :: 20%
Tue 20 Jul 2021 22:42:20 CEST :: 20%
Tue 20 Jul 2021 22:43:23 CEST :: 20%
Tue 20 Jul 2021 22:44:26 CEST :: 20%
Tue 20 Jul 2021 22:45:29 CEST :: 20%
Tue 20 Jul 2021 22:46:32 CEST :: 20%
Tue 20 Jul 2021 22:47:35 CEST :: 20%
Tue 20 Jul 2021 22:48:38 CEST :: 20%
Tue 20 Jul 2021 22:49:41 CEST :: 20%
Tue 20 Jul 2021 22:50:45 CEST :: 20%
Tue 20 Jul 2021 22:51:48 CEST :: 20%
Tue 20 Jul 2021 22:52:51 CEST :: 20%
Tue 20 Jul 2021 22:53:54 CEST :: 20%
Tue 20 Jul 2021 22:54:57 CEST :: 20%
Tue 20 Jul 2021 22:56:01 CEST :: 20%
Tue 20 Jul 2021 22:57:05 CEST :: 20%
Tue 20 Jul 2021 22:58:07 CEST :: 20%
Tue 20 Jul 2021 22:59:12 CEST :: 20%
Tue 20 Jul 2021 23:00:17 CEST :: 20%
Tue 20 Jul 2021 23:01:22 CEST :: 20%
Tue 20 Jul 2021 23:02:25 CEST :: 20%
Tue 20 Jul 2021 23:03:30 CEST :: 20%
Tue 20 Jul 2021 23:04:35 CEST :: 20%
Tue 20 Jul 2021 23:05:39 CEST :: 20%
Tue 20 Jul 2021 23:06:44 CEST :: 20%
Tue 20 Jul 2021 23:07:48 CEST :: 20%
Tue 20 Jul 2021 23:08:51 CEST :: 20%
Tue 20 Jul 2021 23:09:54 CEST :: 20%
Tue 20 Jul 2021 23:10:57 CEST :: 20%
Tue 20 Jul 2021 23:12:00 CEST :: 20%
Tue 20 Jul 2021 23:13:04 CEST :: 20%
Tue 20 Jul 2021 23:14:06 CEST :: 20%
Tue 20 Jul 2021 23:15:09 CEST :: 20%
Tue 20 Jul 2021 23:16:12 CEST :: 20%
Tue 20 Jul 2021 23:17:15 CEST :: 20%
Tue 20 Jul 2021 23:18:18 CEST :: 20%
Tue 20 Jul 2021 23:19:21 CEST :: 20%
Tue 20 Jul 2021 23:20:24 CEST :: 20%
Tue 20 Jul 2021 23:21:27 CEST :: 20%
Tue 20 Jul 2021 23:22:30 CEST :: 20%
Tue 20 Jul 2021 23:23:33 CEST :: 20%
Tue 20 Jul 2021 23:24:36 CEST :: 20%
Tue 20 Jul 2021 23:25:39 CEST :: 20%
Tue 20 Jul 2021 23:26:42 CEST :: 20%
Tue 20 Jul 2021 23:27:45 CEST :: 20%
Tue 20 Jul 2021 23:28:48 CEST :: 20%
Tue 20 Jul 2021 23:29:51 CEST :: 20%
Tue 20 Jul 2021 23:30:54 CEST :: 20%
Tue 20 Jul 2021 23:31:57 CEST :: 20%
Tue 20 Jul 2021 23:33:00 CEST :: 20%
Tue 20 Jul 2021 23:34:03 CEST :: 20%
Tue 20 Jul 2021 23:35:06 CEST :: 20%
Tue 20 Jul 2021 23:36:09 CEST :: 20%
Tue 20 Jul 2021 23:37:12 CEST :: 20%
Tue 20 Jul 2021 23:38:16 CEST :: 20%
Tue 20 Jul 2021 23:39:19 CEST :: 20%
Tue 20 Jul 2021 23:40:22 CEST :: 20%
Tue 20 Jul 2021 23:41:26 CEST :: 20%
Tue 20 Jul 2021 23:42:29 CEST :: 20%
Tue 20 Jul 2021 23:43:32 CEST :: 20%
Tue 20 Jul 2021 23:44:35 CEST :: 20%
Tue 20 Jul 2021 23:45:38 CEST :: 20%
Tue 20 Jul 2021 23:46:42 CEST :: 20%
Tue 20 Jul 2021 23:47:45 CEST :: 20%
Tue 20 Jul 2021 23:48:48 CEST :: 20%
Tue 20 Jul 2021 23:49:52 CEST :: 20%
Tue 20 Jul 2021 23:50:55 CEST :: 20%
Tue 20 Jul 2021 23:51:58 CEST :: 20%
Tue 20 Jul 2021 23:53:01 CEST :: 20%
Tue 20 Jul 2021 23:54:04 CEST :: 20%
Tue 20 Jul 2021 23:55:07 CEST :: 20%
Tue 20 Jul 2021 23:56:10 CEST :: 20%
Tue 20 Jul 2021 23:57:13 CEST :: 20%
Tue 20 Jul 2021 23:58:16 CEST :: 20%
Tue 20 Jul 2021 23:59:19 CEST :: 20%
Wed 21 Jul 2021 00:00:22 CEST :: 20%
Wed 21 Jul 2021 00:01:25 CEST :: 20%
Wed 21 Jul 2021 00:02:28 CEST :: 20%
Wed 21 Jul 2021 00:03:31 CEST :: 20%
Wed 21 Jul 2021 00:04:34 CEST :: 20%
Wed 21 Jul 2021 00:05:37 CEST :: 20%
Wed 21 Jul 2021 00:06:40 CEST :: 20%
Wed 21 Jul 2021 00:07:43 CEST :: 20%
Wed 21 Jul 2021 00:08:46 CEST :: 20%
Wed 21 Jul 2021 00:09:49 CEST :: 20%
Wed 21 Jul 2021 00:10:52 CEST :: 20%
Wed 21 Jul 2021 00:11:55 CEST :: 20%
Wed 21 Jul 2021 00:12:58 CEST :: 20%
Wed 21 Jul 2021 00:14:01 CEST :: 20%
Wed 21 Jul 2021 00:15:04 CEST :: 20%
Wed 21 Jul 2021 00:16:07 CEST :: 20%
Wed 21 Jul 2021 00:17:10 CEST :: 20%
Wed 21 Jul 2021 00:18:13 CEST :: 20%
Wed 21 Jul 2021 00:19:16 CEST :: 20%
Wed 21 Jul 2021 00:20:19 CEST :: 20%
Wed 21 Jul 2021 00:21:22 CEST :: 20%
Wed 21 Jul 2021 00:22:25 CEST :: 20%
Wed 21 Jul 2021 00:23:28 CEST :: 20%
Wed 21 Jul 2021 00:24:31 CEST :: 20%
Wed 21 Jul 2021 00:25:34 CEST :: 20%
Wed 21 Jul 2021 00:26:37 CEST :: 20%
Wed 21 Jul 2021 00:27:40 CEST :: 20%
Wed 21 Jul 2021 00:28:43 CEST :: 20%
Wed 21 Jul 2021 00:29:46 CEST :: 20%
Wed 21 Jul 2021 00:30:49 CEST :: 20%
Wed 21 Jul 2021 00:31:52 CEST :: 20%
Wed 21 Jul 2021 00:32:55 CEST :: 20%
Wed 21 Jul 2021 00:33:58 CEST :: 20%
Wed 21 Jul 2021 00:35:01 CEST :: 20%
Wed 21 Jul 2021 00:36:04 CEST :: 20%
Wed 21 Jul 2021 00:37:07 CEST :: 20%
Wed 21 Jul 2021 00:38:10 CEST :: 20%
Wed 21 Jul 2021 00:39:13 CEST :: 20%
Wed 21 Jul 2021 00:40:16 CEST :: 20%
Wed 21 Jul 2021 00:41:19 CEST :: 20%
Wed 21 Jul 2021 00:42:24 CEST :: 20%
Wed 21 Jul 2021 00:43:26 CEST :: 20%
Wed 21 Jul 2021 00:44:29 CEST :: 20%
Wed 21 Jul 2021 00:45:32 CEST :: 20%
Wed 21 Jul 2021 00:46:37 CEST :: 20%
Wed 21 Jul 2021 00:47:40 CEST :: 20%
Wed 21 Jul 2021 00:48:43 CEST :: 20%
Wed 21 Jul 2021 00:49:46 CEST :: 20%
Wed 21 Jul 2021 00:50:51 CEST :: 20%
Wed 21 Jul 2021 00:51:54 CEST :: 20%
Wed 21 Jul 2021 00:52:59 CEST :: 20%
Wed 21 Jul 2021 00:54:02 CEST :: 20%
Wed 21 Jul 2021 00:55:05 CEST :: 20%
Wed 21 Jul 2021 00:56:09 CEST :: 20%
Wed 21 Jul 2021 00:57:12 CEST :: 20%
Wed 21 Jul 2021 00:58:15 CEST :: 20%
Wed 21 Jul 2021 00:59:18 CEST :: 20%
Wed 21 Jul 2021 01:00:21 CEST :: 20%
Wed 21 Jul 2021 01:01:24 CEST :: 20%
Wed 21 Jul 2021 01:02:27 CEST :: 20%
Wed 21 Jul 2021 01:03:30 CEST :: 20%
Wed 21 Jul 2021 01:04:33 CEST :: 20%
Wed 21 Jul 2021 01:05:36 CEST :: 20%
Wed 21 Jul 2021 01:06:39 CEST :: 20%
Wed 21 Jul 2021 01:07:42 CEST :: 20%
Wed 21 Jul 2021 01:08:45 CEST :: 20%
Wed 21 Jul 2021 01:09:48 CEST :: 20%
Wed 21 Jul 2021 01:10:51 CEST :: 20%
Wed 21 Jul 2021 01:11:54 CEST :: 20%
Wed 21 Jul 2021 01:12:57 CEST :: 20%
Wed 21 Jul 2021 01:14:00 CEST :: 20%
Wed 21 Jul 2021 01:15:03 CEST :: 20%
Wed 21 Jul 2021 01:16:06 CEST :: 20%
Wed 21 Jul 2021 01:17:09 CEST :: 20%
Wed 21 Jul 2021 01:18:12 CEST :: 20%
Wed 21 Jul 2021 01:19:15 CEST :: 20%
Wed 21 Jul 2021 01:20:18 CEST :: 20%
Wed 21 Jul 2021 01:21:21 CEST :: 20%
Wed 21 Jul 2021 01:22:24 CEST :: 20%
Wed 21 Jul 2021 01:23:27 CEST :: 20%
Wed 21 Jul 2021 01:24:30 CEST :: 20%
Wed 21 Jul 2021 01:25:33 CEST :: 20%
Wed 21 Jul 2021 01:26:36 CEST :: 20%
Wed 21 Jul 2021 01:27:39 CEST :: 20%
Wed 21 Jul 2021 01:28:42 CEST :: 20%
Wed 21 Jul 2021 01:29:45 CEST :: 20%
Wed 21 Jul 2021 01:30:47 CEST :: 20%
Wed 21 Jul 2021 01:31:51 CEST :: 20%
Wed 21 Jul 2021 01:32:54 CEST :: 20%
Wed 21 Jul 2021 01:33:57 CEST :: 20%
Wed 21 Jul 2021 01:35:00 CEST :: 20%
Wed 21 Jul 2021 01:36:03 CEST :: 20%
Wed 21 Jul 2021 01:37:06 CEST :: 20%
Wed 21 Jul 2021 01:38:09 CEST :: 20%
Wed 21 Jul 2021 01:39:11 CEST :: 20%
Wed 21 Jul 2021 01:40:15 CEST :: 20%
Wed 21 Jul 2021 01:41:18 CEST :: 20%
Wed 21 Jul 2021 01:42:21 CEST :: 20%
Wed 21 Jul 2021 01:43:23 CEST :: 20%
Wed 21 Jul 2021 01:44:26 CEST :: 20%
Wed 21 Jul 2021 01:45:29 CEST :: 20%
Wed 21 Jul 2021 01:46:32 CEST :: 20%
Wed 21 Jul 2021 01:47:35 CEST :: 20%
Wed 21 Jul 2021 01:48:38 CEST :: 20%
Wed 21 Jul 2021 01:49:41 CEST :: 20%
Wed 21 Jul 2021 01:50:45 CEST :: 20%
Wed 21 Jul 2021 01:51:48 CEST :: 20%
Wed 21 Jul 2021 01:52:51 CEST :: 20%
Wed 21 Jul 2021 01:53:54 CEST :: 20%
Wed 21 Jul 2021 01:54:57 CEST :: 20%
Wed 21 Jul 2021 01:56:00 CEST :: 20%
Wed 21 Jul 2021 01:57:03 CEST :: 20%
Wed 21 Jul 2021 01:58:07 CEST :: 20%
Wed 21 Jul 2021 01:59:09 CEST :: 20%
Wed 21 Jul 2021 02:00:13 CEST :: 20%
Wed 21 Jul 2021 02:01:16 CEST :: 20%
Wed 21 Jul 2021 02:02:20 CEST :: 20%
Wed 21 Jul 2021 02:03:23 CEST :: 20%
Wed 21 Jul 2021 02:04:26 CEST :: 20%
Wed 21 Jul 2021 02:05:29 CEST :: 20%
Wed 21 Jul 2021 02:06:32 CEST :: 20%
Wed 21 Jul 2021 02:07:35 CEST :: 20%
Wed 21 Jul 2021 02:08:38 CEST :: 20%
Wed 21 Jul 2021 02:09:41 CEST :: 20%
Wed 21 Jul 2021 02:10:44 CEST :: 20%
Wed 21 Jul 2021 02:11:47 CEST :: 20%
Wed 21 Jul 2021 02:12:50 CEST :: 20%
Wed 21 Jul 2021 02:13:55 CEST :: 20%
Wed 21 Jul 2021 02:14:57 CEST :: 20%
Wed 21 Jul 2021 02:16:00 CEST :: 20%
Wed 21 Jul 2021 02:17:05 CEST :: 20%
Wed 21 Jul 2021 02:18:08 CEST :: 20%
Wed 21 Jul 2021 02:19:11 CEST :: 20%
Wed 21 Jul 2021 02:20:14 CEST :: 20%
Wed 21 Jul 2021 02:21:17 CEST :: 20%
Wed 21 Jul 2021 02:22:20 CEST :: 20%
Wed 21 Jul 2021 02:23:24 CEST :: 20%
Wed 21 Jul 2021 02:24:27 CEST :: 20%
Wed 21 Jul 2021 02:25:32 CEST :: 20%
Wed 21 Jul 2021 02:26:37 CEST :: 20%
Wed 21 Jul 2021 02:27:40 CEST :: 20%
Wed 21 Jul 2021 02:28:43 CEST :: 20%
Wed 21 Jul 2021 02:29:48 CEST :: 20%
Wed 21 Jul 2021 02:30:53 CEST :: 20%
Wed 21 Jul 2021 02:31:55 CEST :: 20%
Wed 21 Jul 2021 02:33:00 CEST :: 20%
Wed 21 Jul 2021 02:34:05 CEST :: 20%
Wed 21 Jul 2021 02:35:10 CEST :: 20%
Wed 21 Jul 2021 02:36:15 CEST :: 20%
Wed 21 Jul 2021 02:37:20 CEST :: 20%
Wed 21 Jul 2021 02:38:23 CEST :: 20%
Wed 21 Jul 2021 02:39:28 CEST :: 20%
Wed 21 Jul 2021 02:40:31 CEST :: 20%
Wed 21 Jul 2021 02:41:34 CEST :: 20%
Wed 21 Jul 2021 02:42:37 CEST :: 20%
Wed 21 Jul 2021 02:43:40 CEST :: 20%
Wed 21 Jul 2021 02:44:43 CEST :: 20%
Wed 21 Jul 2021 02:45:46 CEST :: 20%
Wed 21 Jul 2021 02:46:49 CEST :: 20%
Wed 21 Jul 2021 02:47:52 CEST :: 20%
Wed 21 Jul 2021 02:48:55 CEST :: 20%
Wed 21 Jul 2021 02:49:58 CEST :: 20%
Wed 21 Jul 2021 02:51:01 CEST :: 20%
Wed 21 Jul 2021 02:52:04 CEST :: 20%
Wed 21 Jul 2021 02:53:07 CEST :: 20%
Wed 21 Jul 2021 02:54:10 CEST :: 20%
Wed 21 Jul 2021 02:55:13 CEST :: 20%
Wed 21 Jul 2021 02:56:15 CEST :: 20%
Wed 21 Jul 2021 02:57:18 CEST :: 20%
Wed 21 Jul 2021 02:58:21 CEST :: 20%
Wed 21 Jul 2021 02:59:25 CEST :: 20%
Wed 21 Jul 2021 03:00:28 CEST :: 20%
Wed 21 Jul 2021 03:01:31 CEST :: 20%
Wed 21 Jul 2021 03:02:34 CEST :: 20%
Wed 21 Jul 2021 03:03:37 CEST :: 20%
Wed 21 Jul 2021 03:04:40 CEST :: 20%
Wed 21 Jul 2021 03:05:43 CEST :: 20%
Wed 21 Jul 2021 03:06:46 CEST :: 20%
Wed 21 Jul 2021 03:07:49 CEST :: 20%
Wed 21 Jul 2021 03:08:52 CEST :: 20%
Wed 21 Jul 2021 03:09:55 CEST :: 20%
Wed 21 Jul 2021 03:10:58 CEST :: 20%
Wed 21 Jul 2021 03:12:01 CEST :: 20%
Wed 21 Jul 2021 03:13:04 CEST :: 20%
Wed 21 Jul 2021 03:14:07 CEST :: 20%
Wed 21 Jul 2021 03:15:10 CEST :: 20%
Wed 21 Jul 2021 03:16:13 CEST :: 20%
Wed 21 Jul 2021 03:17:16 CEST :: 20%
Wed 21 Jul 2021 03:18:19 CEST :: 20%
Wed 21 Jul 2021 03:19:22 CEST :: 20%
Wed 21 Jul 2021 03:20:25 CEST :: 20%
Wed 21 Jul 2021 03:21:28 CEST :: 20%
Wed 21 Jul 2021 03:22:31 CEST :: 20%
Wed 21 Jul 2021 03:23:34 CEST :: 20%
Wed 21 Jul 2021 03:24:37 CEST :: 20%
Wed 21 Jul 2021 03:25:40 CEST :: 20%
Wed 21 Jul 2021 03:26:43 CEST :: 20%
Wed 21 Jul 2021 03:27:46 CEST :: 20%
Wed 21 Jul 2021 03:28:49 CEST :: 20%
Wed 21 Jul 2021 03:29:52 CEST :: 20%
Wed 21 Jul 2021 03:30:55 CEST :: 20%
Wed 21 Jul 2021 03:31:58 CEST :: 20%
Wed 21 Jul 2021 03:33:02 CEST :: 20%
Wed 21 Jul 2021 03:34:05 CEST :: 20%
Wed 21 Jul 2021 03:35:08 CEST :: 20%
Wed 21 Jul 2021 03:36:11 CEST :: 20%
Wed 21 Jul 2021 03:37:14 CEST :: 20%
Wed 21 Jul 2021 03:38:17 CEST :: 20%
Wed 21 Jul 2021 03:39:20 CEST :: 20%
Wed 21 Jul 2021 03:40:23 CEST :: 20%
Wed 21 Jul 2021 03:41:26 CEST :: 20%
Wed 21 Jul 2021 03:42:29 CEST :: 20%
Wed 21 Jul 2021 03:43:32 CEST :: 20%
Wed 21 Jul 2021 03:44:35 CEST :: 20%
Wed 21 Jul 2021 03:45:38 CEST :: 20%
Wed 21 Jul 2021 03:46:41 CEST :: 20%
Wed 21 Jul 2021 03:47:44 CEST :: 20%
Wed 21 Jul 2021 03:48:47 CEST :: 20%
Wed 21 Jul 2021 03:49:50 CEST :: 20%
Wed 21 Jul 2021 03:50:53 CEST :: 20%
Wed 21 Jul 2021 03:51:56 CEST :: 20%
Wed 21 Jul 2021 03:52:59 CEST :: 20%
Wed 21 Jul 2021 03:54:03 CEST :: 20%
Wed 21 Jul 2021 03:55:07 CEST :: 20%
Wed 21 Jul 2021 03:56:10 CEST :: 20%
Wed 21 Jul 2021 03:57:13 CEST :: 20%
Wed 21 Jul 2021 03:58:16 CEST :: 20%
Wed 21 Jul 2021 03:59:19 CEST :: 20%
Wed 21 Jul 2021 04:00:22 CEST :: 20%
Wed 21 Jul 2021 04:01:25 CEST :: 20%
Wed 21 Jul 2021 04:02:28 CEST :: 20%
Wed 21 Jul 2021 04:03:32 CEST :: 20%
Wed 21 Jul 2021 04:04:36 CEST :: 20%
Wed 21 Jul 2021 04:05:40 CEST :: 20%
Wed 21 Jul 2021 04:06:44 CEST :: 20%
Wed 21 Jul 2021 04:07:47 CEST :: 20%
Wed 21 Jul 2021 04:08:50 CEST :: 20%
Wed 21 Jul 2021 04:09:54 CEST :: 20%
Wed 21 Jul 2021 04:10:57 CEST :: 20%
Wed 21 Jul 2021 04:12:00 CEST :: 20%
Wed 21 Jul 2021 04:13:03 CEST :: 20%
Wed 21 Jul 2021 04:14:08 CEST :: 20%
Wed 21 Jul 2021 04:15:11 CEST :: 20%
Wed 21 Jul 2021 04:16:13 CEST :: 20%
Wed 21 Jul 2021 04:17:17 CEST :: 20%
Wed 21 Jul 2021 04:18:19 CEST :: 20%
Wed 21 Jul 2021 04:19:23 CEST :: 20%
Wed 21 Jul 2021 04:20:26 CEST :: 20%
Wed 21 Jul 2021 04:21:29 CEST :: 20%
Wed 21 Jul 2021 04:22:32 CEST :: 20%
Wed 21 Jul 2021 04:23:34 CEST :: 20%
Wed 21 Jul 2021 04:24:38 CEST :: 20%
Wed 21 Jul 2021 04:25:40 CEST :: 20%
Wed 21 Jul 2021 04:26:43 CEST :: 20%
Wed 21 Jul 2021 04:27:47 CEST :: 20%
Wed 21 Jul 2021 04:28:50 CEST :: 20%
Wed 21 Jul 2021 04:29:52 CEST :: 20%
Wed 21 Jul 2021 04:30:55 CEST :: 20%
Wed 21 Jul 2021 04:31:58 CEST :: 20%
Wed 21 Jul 2021 04:33:02 CEST :: 20%
Wed 21 Jul 2021 04:34:04 CEST :: 20%
Wed 21 Jul 2021 04:35:07 CEST :: 20%
Wed 21 Jul 2021 04:36:10 CEST :: 20%
Wed 21 Jul 2021 04:37:13 CEST :: 20%
Wed 21 Jul 2021 04:38:16 CEST :: 20%
Wed 21 Jul 2021 04:39:19 CEST :: 20%
Wed 21 Jul 2021 04:40:22 CEST :: 20%
Wed 21 Jul 2021 04:41:25 CEST :: 20%
Wed 21 Jul 2021 04:42:28 CEST :: 20%
Wed 21 Jul 2021 04:43:31 CEST :: 20%
Wed 21 Jul 2021 04:44:34 CEST :: 20%
Wed 21 Jul 2021 04:45:37 CEST :: 20%
Wed 21 Jul 2021 04:46:40 CEST :: 20%
Wed 21 Jul 2021 04:47:44 CEST :: 20%
Wed 21 Jul 2021 04:48:46 CEST :: 20%
Wed 21 Jul 2021 04:49:49 CEST :: 20%
Wed 21 Jul 2021 04:50:52 CEST :: 20%
Wed 21 Jul 2021 04:51:55 CEST :: 20%
Wed 21 Jul 2021 04:52:58 CEST :: 20%
Wed 21 Jul 2021 04:54:01 CEST :: 20%
Wed 21 Jul 2021 04:55:04 CEST :: 20%
Wed 21 Jul 2021 04:56:07 CEST :: 20%
Wed 21 Jul 2021 04:57:10 CEST :: 20%
Wed 21 Jul 2021 04:58:13 CEST :: 20%
Wed 21 Jul 2021 04:59:16 CEST :: 20%
Wed 21 Jul 2021 05:00:19 CEST :: 20%
Wed 21 Jul 2021 05:01:22 CEST :: 20%
Wed 21 Jul 2021 05:02:25 CEST :: 20%
Wed 21 Jul 2021 05:03:28 CEST :: 20%
Wed 21 Jul 2021 05:04:31 CEST :: 20%
Wed 21 Jul 2021 05:05:34 CEST :: 20%
Wed 21 Jul 2021 05:06:37 CEST :: 20%
Wed 21 Jul 2021 05:07:40 CEST :: 20%
Wed 21 Jul 2021 05:08:43 CEST :: 20%
Wed 21 Jul 2021 05:09:46 CEST :: 20%
Wed 21 Jul 2021 05:10:49 CEST :: 20%
Wed 21 Jul 2021 05:11:52 CEST :: 20%
Wed 21 Jul 2021 05:12:55 CEST :: 20%
Wed 21 Jul 2021 05:13:58 CEST :: 20%
Wed 21 Jul 2021 05:15:01 CEST :: 20%
Wed 21 Jul 2021 05:16:05 CEST :: 20%
Wed 21 Jul 2021 05:17:08 CEST :: 20%
Wed 21 Jul 2021 05:18:11 CEST :: 20%
Wed 21 Jul 2021 05:19:14 CEST :: 20%
Wed 21 Jul 2021 05:20:17 CEST :: 20%
Wed 21 Jul 2021 05:21:20 CEST :: 20%
Wed 21 Jul 2021 05:22:23 CEST :: 20%
Wed 21 Jul 2021 05:23:26 CEST :: 20%
Wed 21 Jul 2021 05:24:29 CEST :: 20%
Wed 21 Jul 2021 05:25:32 CEST :: 20%
Wed 21 Jul 2021 05:26:35 CEST :: 20%
Wed 21 Jul 2021 05:27:39 CEST :: 20%
Wed 21 Jul 2021 05:28:42 CEST :: 20%
Wed 21 Jul 2021 05:29:45 CEST :: 20%
Wed 21 Jul 2021 05:30:48 CEST :: 20%
Wed 21 Jul 2021 05:31:51 CEST :: 20%
Wed 21 Jul 2021 05:32:54 CEST :: 20%
Wed 21 Jul 2021 05:33:57 CEST :: 20%
Wed 21 Jul 2021 05:35:00 CEST :: 20%
Wed 21 Jul 2021 05:36:05 CEST :: 20%
Wed 21 Jul 2021 05:37:08 CEST :: 20%
Wed 21 Jul 2021 05:38:11 CEST :: 20%
Wed 21 Jul 2021 05:39:14 CEST :: 20%
Wed 21 Jul 2021 05:40:17 CEST :: 20%
Wed 21 Jul 2021 05:41:20 CEST :: 20%
Wed 21 Jul 2021 05:42:23 CEST :: 20%
Wed 21 Jul 2021 05:43:27 CEST :: 20%
Wed 21 Jul 2021 05:44:30 CEST :: 20%
Wed 21 Jul 2021 05:45:33 CEST :: 20%
Wed 21 Jul 2021 05:46:36 CEST :: 20%
Wed 21 Jul 2021 05:47:39 CEST :: 20%
Wed 21 Jul 2021 05:48:42 CEST :: 20%
Wed 21 Jul 2021 05:49:45 CEST :: 20%
Wed 21 Jul 2021 05:50:49 CEST :: 20%
Wed 21 Jul 2021 05:51:52 CEST :: 20%
Wed 21 Jul 2021 05:52:55 CEST :: 20%
Wed 21 Jul 2021 05:53:58 CEST :: 20%
Wed 21 Jul 2021 05:55:01 CEST :: 20%
Wed 21 Jul 2021 05:56:04 CEST :: 20%
Wed 21 Jul 2021 05:57:07 CEST :: 20%
Wed 21 Jul 2021 05:58:10 CEST :: 20%
Wed 21 Jul 2021 05:59:13 CEST :: 20%
Wed 21 Jul 2021 06:00:16 CEST :: 20%
Wed 21 Jul 2021 06:01:19 CEST :: 20%
Wed 21 Jul 2021 06:02:22 CEST :: 20%
Wed 21 Jul 2021 06:03:25 CEST :: 20%
Wed 21 Jul 2021 06:04:28 CEST :: 20%
Wed 21 Jul 2021 06:05:31 CEST :: 20%
Wed 21 Jul 2021 06:06:34 CEST :: 20%
Wed 21 Jul 2021 06:07:38 CEST :: 20%
Wed 21 Jul 2021 06:08:43 CEST :: 20%
Wed 21 Jul 2021 06:09:46 CEST :: 20%
Wed 21 Jul 2021 06:10:49 CEST :: 20%
Wed 21 Jul 2021 06:11:52 CEST :: 20%
Wed 21 Jul 2021 06:12:55 CEST :: 20%
Wed 21 Jul 2021 06:13:58 CEST :: 20%
Wed 21 Jul 2021 06:15:01 CEST :: 20%
Wed 21 Jul 2021 06:16:04 CEST :: 20%
Wed 21 Jul 2021 06:17:07 CEST :: 20%
Wed 21 Jul 2021 06:18:10 CEST :: 20%
Wed 21 Jul 2021 06:19:13 CEST :: 20%
Wed 21 Jul 2021 06:20:16 CEST :: 20%
Wed 21 Jul 2021 06:21:19 CEST :: 20%
Wed 21 Jul 2021 06:22:22 CEST :: 20%
Wed 21 Jul 2021 06:23:25 CEST :: 20%
Wed 21 Jul 2021 06:24:28 CEST :: 20%
Wed 21 Jul 2021 06:25:31 CEST :: 20%
Wed 21 Jul 2021 06:26:34 CEST :: 20%
Wed 21 Jul 2021 06:27:37 CEST :: 20%
Wed 21 Jul 2021 06:28:40 CEST :: 20%
Wed 21 Jul 2021 06:29:43 CEST :: 20%
Wed 21 Jul 2021 06:30:46 CEST :: 20%
Wed 21 Jul 2021 06:31:49 CEST :: 20%
Wed 21 Jul 2021 06:32:52 CEST :: 20%
Wed 21 Jul 2021 06:33:55 CEST :: 20%
Wed 21 Jul 2021 06:34:58 CEST :: 20%
Wed 21 Jul 2021 06:36:01 CEST :: 20%
Wed 21 Jul 2021 06:37:04 CEST :: 20%
Wed 21 Jul 2021 06:38:07 CEST :: 20%
Wed 21 Jul 2021 06:39:10 CEST :: 20%
Wed 21 Jul 2021 06:40:14 CEST :: 20%
Wed 21 Jul 2021 06:41:17 CEST :: 20%
Wed 21 Jul 2021 06:42:20 CEST :: 20%
Wed 21 Jul 2021 06:43:23 CEST :: 20%
Wed 21 Jul 2021 06:44:26 CEST :: 20%
Wed 21 Jul 2021 06:45:29 CEST :: 20%
Wed 21 Jul 2021 06:46:32 CEST :: 20%
Wed 21 Jul 2021 06:47:35 CEST :: 20%
Wed 21 Jul 2021 06:48:38 CEST :: 20%
Wed 21 Jul 2021 06:49:41 CEST :: 20%
Wed 21 Jul 2021 06:50:44 CEST :: 20%
Wed 21 Jul 2021 06:51:47 CEST :: 20%
Wed 21 Jul 2021 06:52:50 CEST :: 20%
Wed 21 Jul 2021 06:53:53 CEST :: 20%
Wed 21 Jul 2021 06:54:57 CEST :: 20%
Wed 21 Jul 2021 06:56:00 CEST :: 20%
Wed 21 Jul 2021 06:57:03 CEST :: 20%
Wed 21 Jul 2021 06:58:06 CEST :: 20%
Wed 21 Jul 2021 06:59:09 CEST :: 20%
Wed 21 Jul 2021 07:00:12 CEST :: 20%
Wed 21 Jul 2021 07:01:15 CEST :: 20%
Wed 21 Jul 2021 07:02:18 CEST :: 20%
Wed 21 Jul 2021 07:03:21 CEST :: 20%
Wed 21 Jul 2021 07:04:24 CEST :: 20%
Wed 21 Jul 2021 07:05:27 CEST :: 20%
Wed 21 Jul 2021 07:06:30 CEST :: 20%
Wed 21 Jul 2021 07:07:33 CEST :: 20%
Wed 21 Jul 2021 07:08:37 CEST :: 20%
Wed 21 Jul 2021 07:09:41 CEST :: 20%
Wed 21 Jul 2021 07:10:44 CEST :: 20%
Wed 21 Jul 2021 07:11:47 CEST :: 20%
Wed 21 Jul 2021 07:12:50 CEST :: 20%
Wed 21 Jul 2021 07:13:53 CEST :: 20%
Wed 21 Jul 2021 07:14:56 CEST :: 20%
Wed 21 Jul 2021 07:15:58 CEST :: 20%
Wed 21 Jul 2021 07:17:02 CEST :: 20%
Wed 21 Jul 2021 07:18:06 CEST :: 20%
Wed 21 Jul 2021 07:19:09 CEST :: 20%
Wed 21 Jul 2021 07:20:12 CEST :: 20%
Wed 21 Jul 2021 07:21:14 CEST :: 20%
Wed 21 Jul 2021 07:22:17 CEST :: 20%
Wed 21 Jul 2021 07:23:20 CEST :: 20%
Wed 21 Jul 2021 07:24:23 CEST :: 20%
Wed 21 Jul 2021 07:25:26 CEST :: 20%
Wed 21 Jul 2021 07:26:29 CEST :: 20%
Wed 21 Jul 2021 07:27:34 CEST :: 20%
Wed 21 Jul 2021 07:28:36 CEST :: 20%
Wed 21 Jul 2021 07:29:40 CEST :: 20%
Wed 21 Jul 2021 07:30:43 CEST :: 20%
Wed 21 Jul 2021 07:31:46 CEST :: 20%
Wed 21 Jul 2021 07:32:51 CEST :: 20%
Wed 21 Jul 2021 07:33:56 CEST :: 20%
Wed 21 Jul 2021 07:34:59 CEST :: 20%
Wed 21 Jul 2021 07:36:02 CEST :: 20%
Wed 21 Jul 2021 07:37:07 CEST :: 20%
Wed 21 Jul 2021 07:38:12 CEST :: 20%
Wed 21 Jul 2021 07:39:16 CEST :: 20%
Wed 21 Jul 2021 07:40:20 CEST :: 20%
Wed 21 Jul 2021 07:41:22 CEST :: 20%
Wed 21 Jul 2021 07:42:27 CEST :: 20%
Wed 21 Jul 2021 07:43:29 CEST :: 20%
Wed 21 Jul 2021 07:44:32 CEST :: 20%
Wed 21 Jul 2021 07:45:35 CEST :: 20%
Wed 21 Jul 2021 07:46:38 CEST :: 20%
Wed 21 Jul 2021 07:47:41 CEST :: 20%
Wed 21 Jul 2021 07:48:46 CEST :: 20%
Wed 21 Jul 2021 07:49:48 CEST :: 20%
Wed 21 Jul 2021 07:50:51 CEST :: 20%
Wed 21 Jul 2021 07:51:54 CEST :: 20%
Wed 21 Jul 2021 07:52:57 CEST :: 20%
Wed 21 Jul 2021 07:54:00 CEST :: 20%
Wed 21 Jul 2021 07:55:03 CEST :: 20%
Wed 21 Jul 2021 07:56:06 CEST :: 20%
Wed 21 Jul 2021 07:57:09 CEST :: 20%
Wed 21 Jul 2021 07:58:12 CEST :: 20%
Wed 21 Jul 2021 07:59:15 CEST :: 20%
Wed 21 Jul 2021 08:00:18 CEST :: 20%
Wed 21 Jul 2021 08:01:21 CEST :: 20%
Wed 21 Jul 2021 08:02:24 CEST :: 20%
Wed 21 Jul 2021 08:03:27 CEST :: 20%
Wed 21 Jul 2021 08:04:30 CEST :: 20%
Wed 21 Jul 2021 08:05:33 CEST :: 20%
Wed 21 Jul 2021 08:06:36 CEST :: 20%
Wed 21 Jul 2021 08:07:39 CEST :: 20%
Wed 21 Jul 2021 08:08:42 CEST :: 20%
Wed 21 Jul 2021 08:09:45 CEST :: 20%
Wed 21 Jul 2021 08:10:48 CEST :: 20%
Wed 21 Jul 2021 08:11:51 CEST :: 20%
Wed 21 Jul 2021 08:12:54 CEST :: 20%
Wed 21 Jul 2021 08:13:57 CEST :: 20%
Wed 21 Jul 2021 08:15:00 CEST :: 20%
Wed 21 Jul 2021 08:16:03 CEST :: 20%
Wed 21 Jul 2021 08:17:06 CEST :: 20%
Wed 21 Jul 2021 08:18:09 CEST :: 20%
Wed 21 Jul 2021 08:19:12 CEST :: 20%
Wed 21 Jul 2021 08:20:15 CEST :: 20%
Wed 21 Jul 2021 08:21:18 CEST :: 20%
Wed 21 Jul 2021 08:22:21 CEST :: 20%
Wed 21 Jul 2021 08:23:24 CEST :: 20%
Wed 21 Jul 2021 08:24:27 CEST :: 20%
Wed 21 Jul 2021 08:25:30 CEST :: 20%
Wed 21 Jul 2021 08:26:33 CEST :: 20%
Wed 21 Jul 2021 08:27:36 CEST :: 20%
Wed 21 Jul 2021 08:28:39 CEST :: 20%
Wed 21 Jul 2021 08:29:42 CEST :: 20%
Wed 21 Jul 2021 08:30:45 CEST :: 20%
Wed 21 Jul 2021 08:31:48 CEST :: 20%
Wed 21 Jul 2021 08:32:51 CEST :: 20%
Wed 21 Jul 2021 08:33:54 CEST :: 20%
Wed 21 Jul 2021 08:34:57 CEST :: 20%
Wed 21 Jul 2021 08:36:00 CEST :: 20%
Wed 21 Jul 2021 08:37:03 CEST :: 20%
Wed 21 Jul 2021 08:38:06 CEST :: 20%
Wed 21 Jul 2021 08:39:09 CEST :: 20%
Wed 21 Jul 2021 08:40:12 CEST :: 20%
Wed 21 Jul 2021 08:41:15 CEST :: 20%
Wed 21 Jul 2021 08:42:18 CEST :: 20%
Wed 21 Jul 2021 08:43:21 CEST :: 20%
Wed 21 Jul 2021 08:44:24 CEST :: 20%
Wed 21 Jul 2021 08:45:27 CEST :: 20%
Wed 21 Jul 2021 08:46:30 CEST :: 20%
Wed 21 Jul 2021 08:47:33 CEST :: 20%
Wed 21 Jul 2021 08:48:36 CEST :: 20%
Wed 21 Jul 2021 08:49:39 CEST :: 20%
Wed 21 Jul 2021 08:50:42 CEST :: 20%
Wed 21 Jul 2021 08:51:45 CEST :: 20%
Wed 21 Jul 2021 08:52:48 CEST :: 20%
Wed 21 Jul 2021 08:53:51 CEST :: 20%
Wed 21 Jul 2021 08:54:54 CEST :: 20%
Wed 21 Jul 2021 08:55:58 CEST :: 20%
Wed 21 Jul 2021 08:57:01 CEST :: 20%
Wed 21 Jul 2021 08:58:04 CEST :: 20%
Wed 21 Jul 2021 08:59:07 CEST :: 20%
Wed 21 Jul 2021 09:00:10 CEST :: 20%
Wed 21 Jul 2021 09:01:13 CEST :: 20%
Wed 21 Jul 2021 09:02:16 CEST :: 20%
Wed 21 Jul 2021 09:03:19 CEST :: 20%
Wed 21 Jul 2021 09:04:22 CEST :: 20%
Wed 21 Jul 2021 09:05:27 CEST :: 20%
Wed 21 Jul 2021 09:06:30 CEST :: 20%
Wed 21 Jul 2021 09:07:33 CEST :: 20%
Wed 21 Jul 2021 09:08:36 CEST :: 20%
Wed 21 Jul 2021 09:09:39 CEST :: 20%
Wed 21 Jul 2021 09:10:42 CEST :: 20%
Wed 21 Jul 2021 09:11:45 CEST :: 20%
Wed 21 Jul 2021 09:12:48 CEST :: 20%
Wed 21 Jul 2021 09:13:51 CEST :: 20%
Wed 21 Jul 2021 09:14:54 CEST :: 20%
Wed 21 Jul 2021 09:15:57 CEST :: 20%
Wed 21 Jul 2021 09:17:01 CEST :: 20%
Wed 21 Jul 2021 09:18:04 CEST :: 20%
Wed 21 Jul 2021 09:19:07 CEST :: 20%
Wed 21 Jul 2021 09:20:10 CEST :: 20%
Wed 21 Jul 2021 09:21:18 CEST :: 20%
Wed 21 Jul 2021 09:22:21 CEST :: 20%
Wed 21 Jul 2021 09:23:24 CEST :: 20%
Wed 21 Jul 2021 09:24:27 CEST :: 20%
Wed 21 Jul 2021 09:25:30 CEST :: 20%
Wed 21 Jul 2021 09:26:33 CEST :: 20%
Wed 21 Jul 2021 09:27:36 CEST :: 20%
Wed 21 Jul 2021 09:28:39 CEST :: 20%
Wed 21 Jul 2021 09:29:42 CEST :: 20%
Wed 21 Jul 2021 09:30:45 CEST :: 20%
Wed 21 Jul 2021 09:31:48 CEST :: 20%
Wed 21 Jul 2021 09:32:52 CEST :: 20%
Wed 21 Jul 2021 09:33:55 CEST :: 20%
Wed 21 Jul 2021 09:34:58 CEST :: 20%
Wed 21 Jul 2021 09:36:01 CEST :: 20%
Wed 21 Jul 2021 09:37:04 CEST :: 20%
Wed 21 Jul 2021 09:38:07 CEST :: 20%
Wed 21 Jul 2021 09:39:10 CEST :: 20%
Wed 21 Jul 2021 09:40:13 CEST :: 20%
Wed 21 Jul 2021 09:41:16 CEST :: 20%
Wed 21 Jul 2021 09:42:19 CEST :: 20%
Wed 21 Jul 2021 09:43:22 CEST :: 20%
Wed 21 Jul 2021 09:44:25 CEST :: 20%
Wed 21 Jul 2021 09:45:28 CEST :: 20%
Wed 21 Jul 2021 09:46:31 CEST :: 20%
Wed 21 Jul 2021 09:47:34 CEST :: 20%
Wed 21 Jul 2021 09:48:37 CEST :: 20%
Wed 21 Jul 2021 09:49:40 CEST :: 20%
Wed 21 Jul 2021 09:50:43 CEST :: 20%
Wed 21 Jul 2021 09:51:46 CEST :: 20%
Wed 21 Jul 2021 09:52:49 CEST :: 20%
Wed 21 Jul 2021 09:53:52 CEST :: 20%
Wed 21 Jul 2021 09:54:55 CEST :: 20%
Wed 21 Jul 2021 09:55:57 CEST :: 20%
Wed 21 Jul 2021 09:57:01 CEST :: 20%
Wed 21 Jul 2021 09:58:04 CEST :: 20%
Wed 21 Jul 2021 09:59:07 CEST :: 20%
Wed 21 Jul 2021 10:00:10 CEST :: 20%
Wed 21 Jul 2021 10:01:14 CEST :: 20%
Wed 21 Jul 2021 10:02:17 CEST :: 20%
Wed 21 Jul 2021 10:03:20 CEST :: 20%
Wed 21 Jul 2021 10:04:22 CEST :: 20%
Wed 21 Jul 2021 10:05:25 CEST :: 20%
Wed 21 Jul 2021 10:06:28 CEST :: 20%
Wed 21 Jul 2021 10:07:31 CEST :: 20%
Wed 21 Jul 2021 10:08:35 CEST :: 20%
Wed 21 Jul 2021 10:09:37 CEST :: 20%
Wed 21 Jul 2021 10:10:41 CEST :: 20%
Wed 21 Jul 2021 10:11:44 CEST :: 20%
Wed 21 Jul 2021 10:12:46 CEST :: 20%
Wed 21 Jul 2021 10:13:49 CEST :: 20%
Wed 21 Jul 2021 10:14:52 CEST :: 20%
Wed 21 Jul 2021 10:15:56 CEST :: 20%
Wed 21 Jul 2021 10:16:58 CEST :: 20%
Wed 21 Jul 2021 10:18:01 CEST :: 20%
Wed 21 Jul 2021 10:19:05 CEST :: 20%
Wed 21 Jul 2021 10:20:07 CEST :: 20%
Wed 21 Jul 2021 10:21:10 CEST :: 20%
Wed 21 Jul 2021 10:22:13 CEST :: 20%
Wed 21 Jul 2021 10:23:16 CEST :: 20%
Wed 21 Jul 2021 10:24:19 CEST :: 20%
Wed 21 Jul 2021 10:25:22 CEST :: 20%
Wed 21 Jul 2021 10:26:25 CEST :: 20%
Wed 21 Jul 2021 10:27:28 CEST :: 20%
Wed 21 Jul 2021 10:28:31 CEST :: 20%
Wed 21 Jul 2021 10:29:34 CEST :: 20%
Wed 21 Jul 2021 10:30:37 CEST :: 20%
Wed 21 Jul 2021 10:31:40 CEST :: 20%
Wed 21 Jul 2021 10:32:45 CEST :: 20%
Wed 21 Jul 2021 10:33:47 CEST :: 20%
Wed 21 Jul 2021 10:34:50 CEST :: 20%
Wed 21 Jul 2021 10:35:53 CEST :: 20%
Wed 21 Jul 2021 10:36:56 CEST :: 20%
Wed 21 Jul 2021 10:38:00 CEST :: 20%
Wed 21 Jul 2021 10:39:03 CEST :: 20%
Wed 21 Jul 2021 10:40:06 CEST :: 20%
Wed 21 Jul 2021 10:41:09 CEST :: 20%
Wed 21 Jul 2021 10:42:12 CEST :: 20%
Wed 21 Jul 2021 10:43:15 CEST :: 20%
Wed 21 Jul 2021 10:44:18 CEST :: 20%
Wed 21 Jul 2021 10:45:23 CEST :: 20%
Wed 21 Jul 2021 10:46:26 CEST :: 20%
Wed 21 Jul 2021 10:47:29 CEST :: 20%
Wed 21 Jul 2021 10:48:32 CEST :: 20%
Wed 21 Jul 2021 10:49:35 CEST :: 20%
Wed 21 Jul 2021 10:50:38 CEST :: 20%
Wed 21 Jul 2021 10:51:41 CEST :: 20%
Wed 21 Jul 2021 10:52:46 CEST :: 20%
Wed 21 Jul 2021 10:53:49 CEST :: 20%
Wed 21 Jul 2021 10:54:52 CEST :: 20%
Wed 21 Jul 2021 10:55:55 CEST :: 20%
Wed 21 Jul 2021 10:56:58 CEST :: 20%
Wed 21 Jul 2021 10:58:01 CEST :: 20%
Wed 21 Jul 2021 10:59:04 CEST :: 20%
Wed 21 Jul 2021 11:00:07 CEST :: 20%
Wed 21 Jul 2021 11:01:10 CEST :: 20%
Wed 21 Jul 2021 11:02:13 CEST :: 20%
Wed 21 Jul 2021 11:03:17 CEST :: 20%
Wed 21 Jul 2021 11:04:20 CEST :: 20%
Wed 21 Jul 2021 11:04:39 CEST :: 20%
Wed 21 Jul 2021 11:05:41 CEST :: 20%
Wed 21 Jul 2021 11:06:32 CEST :: 20%
Wed 21 Jul 2021 11:06:57 CEST :: 20%
Wed 21 Jul 2021 13:11:17 CEST :: 83%
Wed 21 Jul 2021 13:12:20 CEST :: 83%
Wed 21 Jul 2021 13:13:25 CEST :: 83%
Wed 21 Jul 2021 13:14:28 CEST :: 83%
Wed 21 Jul 2021 13:15:31 CEST :: 83%
Wed 21 Jul 2021 13:16:34 CEST :: 83%
Wed 21 Jul 2021 13:17:37 CEST :: 83%
Wed 21 Jul 2021 13:18:40 CEST :: 83%
Wed 21 Jul 2021 13:19:43 CEST :: 83%
Wed 21 Jul 2021 13:20:46 CEST :: 83%
Wed 21 Jul 2021 13:21:49 CEST :: 83%
Wed 21 Jul 2021 13:22:54 CEST :: 83%
Wed 21 Jul 2021 13:23:20 CEST :: 83%
Wed 21 Jul 2021 13:24:23 CEST :: 83%
Wed 21 Jul 2021 13:25:26 CEST :: 83%
Wed 21 Jul 2021 13:26:29 CEST :: 83%
Wed 21 Jul 2021 13:27:33 CEST :: 83%
Wed 21 Jul 2021 13:28:36 CEST :: 83%
Wed 21 Jul 2021 13:29:39 CEST :: 83%
Wed 21 Jul 2021 13:30:42 CEST :: 83%
Wed 21 Jul 2021 13:31:45 CEST :: 83%
Wed 21 Jul 2021 13:32:48 CEST :: 83%
Wed 21 Jul 2021 13:33:51 CEST :: 83%
Wed 21 Jul 2021 13:34:54 CEST :: 83%
Wed 21 Jul 2021 13:35:57 CEST :: 83%
Wed 21 Jul 2021 13:37:00 CEST :: 83%
Wed 21 Jul 2021 13:38:03 CEST :: 83%
Wed 21 Jul 2021 13:39:06 CEST :: 83%
Wed 21 Jul 2021 13:40:09 CEST :: 83%
Wed 21 Jul 2021 13:41:12 CEST :: 83%
Wed 21 Jul 2021 13:42:15 CEST :: 83%
Wed 21 Jul 2021 13:43:18 CEST :: 83%
Wed 21 Jul 2021 13:44:21 CEST :: 83%
Wed 21 Jul 2021 13:45:24 CEST :: 83%
Wed 21 Jul 2021 13:46:27 CEST :: 83%
Wed 21 Jul 2021 13:47:30 CEST :: 83%
Wed 21 Jul 2021 13:48:33 CEST :: 83%
Wed 21 Jul 2021 13:49:36 CEST :: 83%
Wed 21 Jul 2021 13:50:39 CEST :: 83%
Wed 21 Jul 2021 13:51:42 CEST :: 83%
Wed 21 Jul 2021 13:52:45 CEST :: 83%
Wed 21 Jul 2021 13:53:48 CEST :: 83%
Wed 21 Jul 2021 13:54:51 CEST :: 83%
Wed 21 Jul 2021 13:55:54 CEST :: 83%
Wed 21 Jul 2021 13:56:57 CEST :: 83%
Wed 21 Jul 2021 13:58:00 CEST :: 83%
Wed 21 Jul 2021 13:59:03 CEST :: 83%
Wed 21 Jul 2021 14:00:06 CEST :: 83%
Wed 21 Jul 2021 14:00:47 CEST :: 83%
Wed 21 Jul 2021 14:01:50 CEST :: 83%
Wed 21 Jul 2021 14:02:53 CEST :: 83%
Wed 21 Jul 2021 14:03:56 CEST :: 83%
Wed 21 Jul 2021 14:04:59 CEST :: 83%
Wed 21 Jul 2021 14:06:02 CEST :: 83%
Wed 21 Jul 2021 14:07:05 CEST :: 83%
Wed 21 Jul 2021 14:08:10 CEST :: 83%
Wed 21 Jul 2021 14:09:13 CEST :: 83%
Wed 21 Jul 2021 14:10:16 CEST :: 83%
Wed 21 Jul 2021 14:11:18 CEST :: 83%
Wed 21 Jul 2021 14:12:22 CEST :: 83%
Wed 21 Jul 2021 14:13:25 CEST :: 83%
Wed 21 Jul 2021 14:14:27 CEST :: 83%
Wed 21 Jul 2021 14:15:30 CEST :: 83%
Wed 21 Jul 2021 14:16:33 CEST :: 83%
Wed 21 Jul 2021 14:17:36 CEST :: 83%
Wed 21 Jul 2021 14:34:04 CEST :: 98%
Wed 21 Jul 2021 14:34:09 CEST :: 98%
Wed 21 Jul 2021 14:35:11 CEST :: 98%
Wed 21 Jul 2021 14:36:14 CEST :: 98%
Wed 21 Jul 2021 14:37:17 CEST :: 98%
Wed 21 Jul 2021 14:38:26 CEST :: 98%
Wed 21 Jul 2021 14:39:29 CEST :: 98%
Wed 21 Jul 2021 14:40:32 CEST :: 98%
Wed 21 Jul 2021 14:41:35 CEST :: 98%
Wed 21 Jul 2021 14:42:38 CEST :: 98%
Wed 21 Jul 2021 14:43:41 CEST :: 98%
Wed 21 Jul 2021 14:44:44 CEST :: 98%
Wed 21 Jul 2021 14:45:47 CEST :: 98%
Wed 21 Jul 2021 14:46:50 CEST :: 98%
Wed 21 Jul 2021 14:47:53 CEST :: 98%
Wed 21 Jul 2021 14:48:56 CEST :: 98%
Wed 21 Jul 2021 14:49:59 CEST :: 98%
Wed 21 Jul 2021 14:51:02 CEST :: 98%
Wed 21 Jul 2021 14:52:05 CEST :: 98%
Wed 21 Jul 2021 14:53:08 CEST :: 98%
Wed 21 Jul 2021 14:54:11 CEST :: 98%
Wed 21 Jul 2021 14:55:14 CEST :: 98%
Wed 21 Jul 2021 14:56:17 CEST :: 98%
Wed 21 Jul 2021 14:56:49 CEST :: 98%
Wed 21 Jul 2021 14:57:28 CEST :: 98%
Wed 21 Jul 2021 14:57:38 CEST :: 98%
Wed 21 Jul 2021 14:57:42 CEST :: 98%
Wed 21 Jul 2021 14:58:03 CEST :: 98%
Sun 25 Jul 2021 20:44:03 CEST :: 86%
Sun 25 Jul 2021 20:45:11 CEST :: 86%
Sun 25 Jul 2021 22:08:32 CEST :: 86%
Sun 25 Jul 2021 22:08:48 CEST :: 86%
Sun 25 Jul 2021 22:09:03 CEST :: 86%
Sun 25 Jul 2021 22:10:10 CEST :: 86%
Sun 25 Jul 2021 22:11:15 CEST :: 86%
Sun 25 Jul 2021 22:12:20 CEST :: 86%
Sun 25 Jul 2021 22:13:28 CEST :: 86%
Mon 26 Jul 2021 01:26:31 CEST :: 79%
Mon 26 Jul 2021 01:27:16 CEST :: 79%
Mon 26 Jul 2021 01:28:25 CEST :: 79%
Mon 26 Jul 2021 12:05:57 CEST :: 79%
Mon 26 Jul 2021 12:06:41 CEST :: 79%
Mon 26 Jul 2021 12:07:17 CEST :: 79%
Mon 26 Jul 2021 23:59:17 CEST :: 76%
Mon 26 Jul 2021 23:59:50 CEST :: 76%
Mon 26 Jul 2021 23:59:55 CEST :: 76%
Tue 27 Jul 2021 00:00:09 CEST :: 76%
Tue 27 Jul 2021 00:00:14 CEST :: 76%
Tue 27 Jul 2021 00:00:28 CEST :: 76%
Tue 27 Jul 2021 02:04:49 CEST :: 71%
Tue 27 Jul 2021 02:05:52 CEST :: 71%
Tue 27 Jul 2021 02:06:55 CEST :: 71%
Tue 27 Jul 2021 02:07:06 CEST :: 71%
Tue 27 Jul 2021 02:07:19 CEST :: 71%
Tue 27 Jul 2021 02:07:29 CEST :: 71%
Tue 27 Jul 2021 02:07:36 CEST :: 71%
Tue 27 Jul 2021 02:08:03 CEST :: 71%
Tue 27 Jul 2021 02:08:23 CEST :: 71%
